{
  "type": "Feature",
  "style": {
    "color": "grey",
    "fillColor": "#782EBE",
    "fillOpacity": 0.1,
    "weight": 0.4
  },
  "geometry": {
    "type": "GeometryCollection",
    "geometries": [
      {
        "type": "Point",
        "coordinates": [
          22.916667,
          40.633333
        ]
      },
      {
        "type": "MultiPolygon",
        "coordinates": [
          [
            [
              [
                25.7706,
                39.617
              ],
              [
                25.6184,
                39.8821
              ],
              [
                25.6524,
                39.9368
              ],
              [
                25.5372,
                40.1078
              ],
              [
                25.5406,
                40.1657
              ],
              [
                25.6051,
                40.2688
              ],
              [
                25.8274,
                40.3472
              ],
              [
                26.0263,
                40.3915
              ],
              [
                26.0552,
                40.4331
              ],
              [
                25.8798,
                40.6151
              ],
              [
                25.9269,
                40.6718
              ],
              [
                26.0343,
                40.731
              ],
              [
                26.0106,
                40.8131
              ],
              [
                25.9502,
                40.8424
              ],
              [
                25.5614,
                40.8573
              ],
              [
                25.3084,
                40.9448
              ],
              [
                25.2578,
                40.9256
              ],
              [
                25.1297,
                40.9561
              ],
              [
                25.136,
                41.0075
              ],
              [
                25.0702,
                41.0039
              ],
              [
                24.9886,
                40.9307
              ],
              [
                24.8743,
                40.9058
              ],
              [
                24.8033,
                40.8448
              ],
              [
                24.6295,
                40.8591
              ],
              [
                24.5504,
                40.9541
              ],
              [
                24.3942,
                40.9337
              ],
              [
                24.315,
                40.8687
              ],
              [
                24.315,
                40.8234
              ],
              [
                24.1449,
                40.7398
              ],
              [
                24.0452,
                40.7187
              ],
              [
                23.8501,
                40.7865
              ],
              [
                23.7434,
                40.7572
              ],
              [
                23.695,
                40.668
              ],
              [
                23.7393,
                40.6568
              ],
              [
                23.8339,
                40.5569
              ],
              [
                23.9196,
                40.5334
              ],
              [
                23.8333,
                40.5185
              ],
              [
                23.8241,
                40.4684
              ],
              [
                23.8914,
                40.3939
              ],
              [
                24.0105,
                40.3891
              ],
              [
                24.0071,
                40.4517
              ],
              [
                24.0668,
                40.3672
              ],
              [
                24.1547,
                40.3572
              ],
              [
                24.2479,
                40.31
              ],
              [
                24.2853,
                40.2476
              ],
              [
                24.385,
                40.1813
              ],
              [
                24.3988,
                40.1409
              ],
              [
                24.3051,
                40.1145
              ],
              [
                24.2772,
                40.1651
              ],
              [
                24.1493,
                40.2855
              ],
              [
                24.0384,
                40.2934
              ],
              [
                23.9639,
                40.3462
              ],
              [
                23.852,
                40.3703
              ],
              [
                23.7829,
                40.3369
              ],
              [
                23.7359,
                40.3539
              ],
              [
                23.6937,
                40.2875
              ],
              [
                23.78,
                40.189
              ],
              [
                23.9153,
                40.1579
              ],
              [
                23.9935,
                40.1124
              ],
              [
                24.0226,
                40.0171
              ],
              [
                23.9957,
                39.9565
              ],
              [
                23.9188,
                39.9481
              ],
              [
                23.8222,
                40.0141
              ],
              [
                23.7735,
                40.1168
              ],
              [
                23.6555,
                40.223
              ],
              [
                23.526,
                40.2383
              ],
              [
                23.3896,
                40.275
              ],
              [
                23.3312,
                40.1991
              ],
              [
                23.5125,
                40.0244
              ],
              [
                23.6676,
                39.9804
              ],
              [
                23.7502,
                39.9161
              ],
              [
                23.5935,
                39.9211
              ],
              [
                23.469,
                39.9694
              ],
              [
                23.3596,
                39.9606
              ],
              [
                23.3801,
                40.0073
              ],
              [
                23.3042,
                40.0994
              ],
              [
                23.3167,
                40.2162
              ],
              [
                23.2916,
                40.2372
              ],
              [
                23.0178,
                40.326
              ],
              [
                22.9153,
                40.3807
              ],
              [
                22.8165,
                40.5019
              ],
              [
                22.9102,
                40.5054
              ],
              [
                22.9808,
                40.5522
              ],
              [
                22.9518,
                40.6206
              ],
              [
                22.8947,
                40.644
              ],
              [
                22.8566,
                40.5943
              ],
              [
                22.7409,
                40.5579
              ],
              [
                22.7468,
                40.5197
              ],
              [
                22.6519,
                40.5219
              ],
              [
                22.6675,
                40.4876
              ],
              [
                22.594,
                40.4727
              ],
              [
                22.6199,
                40.3872
              ],
              [
                22.6584,
                40.3684
              ],
              [
                22.5479,
                40.1415
              ],
              [
                22.5953,
                40.0112
              ],
              [
                22.7058,
                39.9548
              ],
              [
                22.7345,
                39.8713
              ],
              [
                22.8522,
                39.8006
              ],
              [
                22.9167,
                39.6167
              ],
              [
                25.7706,
                39.617
              ]
            ]
          ]
        ]
      }
    ]
  },
  "properties": {
    "country": "Greece",
    "url": "https://gisis.imo.org/Public/COMSAR/RCC.aspx?CID=GRC&Action=View&ID=761",
    "kind": "Maritime Rescue Sub-Centre (MRSC)",
    "name": "THESSALONIKI",
    "mmsi": "237673210",
    "callSign": null,
    "VHF_voiceCallSign": "Thessaloniki Port Authority",
    "LRIT_ID": "2615",
    "telephone": [
      "+302313325800",
      "+302313325801"
    ],
    "fax": [
      "+302310531506"
    ],
    "email": [
      "thessaloniki@hcg.gr"
    ],
    "telex": null,
    "otherLandlineCommunication": null,
    "associatedCRS": "See below",
    "associatedLES": null,
    "associatedCOSPAS_SARSAT": "GRMCC (Greece)",
    "associatedARCC": "See below",
    "telemedicalAdvice": "See below",
    "facilitiesAvailable": "See below",
    "remarks": "Associated CRSsi)\tName:\tOlympia Radio\tCall sign:\tSVO\tMMSI:\t002371000\tRadiocommunications and keep 24 H Radio watch, in all DSC/MF-HF-VHF Distress Frequenciesii)\tSee remarks_____________________MRSC THESSALONIKI and all port authorities in Greece, manned by Coastguard personnel, maintain a continuous listening watch, on international DSC/VHF \u2013 MF distress frequencies and also VHF Ch.12.",
    "additionalInformation": null,
    "areaLimitsPlaintext": null,
    "gmlFilename": "GRC-RCCAreas-761.gml",
    "updated": "2021-10-07 00:00:00",
    "fetched": "2024-06-23 15:07:57+00:00"
  }
}