{
  "type": "Feature",
  "style": {
    "color": "grey",
    "fillColor": "#606c38",
    "fillOpacity": 0.1,
    "weight": 0.4
  },
  "geometry": {
    "type": "Point",
    "coordinates": [
      35.0,
      32.816667
    ]
  },
  "properties": {
    "country": "Israel",
    "url": "https://gisis.imo.org/Public/COMSAR/RCC.aspx?CID=ISR&Action=View&ID=1051",
    "kind": "Joint Rescue Co-ordination Centre (JRCC)",
    "name": "RCC HAIFA",
    "mmsi": "004280001",
    "callSign": "RCC HAIFA",
    "VHF_voiceCallSign": "RCC HAIFA",
    "LRIT_ID": "2090",
    "telephone": [
      "+97248632145",
      "+97248632073"
    ],
    "fax": [
      "+97248632117",
      "+97248590919"
    ],
    "email": [
      "RCC@mot.gov.il"
    ],
    "telex": "+580 44281110",
    "otherLandlineCommunication": null,
    "associatedCRS": null,
    "associatedLES": "711",
    "associatedCOSPAS_SARSAT": "BARI",
    "associatedARCC": null,
    "telemedicalAdvice": null,
    "facilitiesAvailable": null,
    "remarks": null,
    "additionalInformation": null,
    "areaLimitsPlaintext": null,
    "gmlFilename": null,
    "updated": "2017-10-30 00:00:00",
    "fetched": "2024-06-23 14:53:53+00:00"
  }
}