{
  "type": "Feature",
  "style": {
    "color": "grey",
    "fillColor": "#AEF6BA",
    "fillOpacity": 0.2,
    "weight": 0.4
  },
  "geometry": {
    "type": "GeometryCollection",
    "geometries": [
      {
        "type": "Point",
        "coordinates": [
          12.316667,
          45.416667
        ]
      },
      {
        "type": "MultiPolygon",
        "coordinates": [
          [
            [
              [
                12.4,
                44.7933
              ],
              [
                12.6667,
                44.7
              ],
              [
                13.135,
                44.7517
              ],
              [
                13.0,
                45.1633
              ],
              [
                13.2117,
                45.455
              ],
              [
                13.1,
                45.6433
              ],
              [
                12.4,
                44.7933
              ]
            ]
          ]
        ]
      }
    ]
  },
  "properties": {
    "country": "Italy",
    "url": "https://gisis.imo.org/Public/COMSAR/RCC.aspx?CID=ITA&Action=View&ID=131",
    "kind": "Maritime Rescue Sub-Centre (MRSC)",
    "name": "Venezia",
    "mmsi": "002470019",
    "callSign": "ICI 09",
    "VHF_voiceCallSign": "ICI 09",
    "LRIT_ID": "2388",
    "telephone": [
      "+390412405711",
      "+390412405745",
      "+390412405706"
    ],
    "fax": [
      "+390412405730"
    ],
    "email": [
      "so.cpvenezia@mit.gov.it"
    ],
    "telex": null,
    "otherLandlineCommunication": null,
    "associatedCRS": "Trieste Radio",
    "associatedLES": "Fucino",
    "associatedCOSPAS_SARSAT": "MRCC Rome",
    "associatedARCC": "Trieste Radio",
    "telemedicalAdvice": "Trieste Radio",
    "facilitiesAvailable": "Trieste Radio",
    "remarks": null,
    "additionalInformation": null,
    "areaLimitsPlaintext": null,
    "gmlFilename": "ITA-RCCAreas-131.gml",
    "updated": "2019-10-03 00:00:00",
    "fetched": "2024-06-23 15:05:55+00:00"
  }
}