{
  "type": "Feature",
  "style": {
    "color": "grey",
    "fillColor": "#AEF6BA",
    "fillOpacity": 0.2,
    "weight": 0.4
  },
  "geometry": {
    "type": "Point",
    "coordinates": [
      9.5,
      40.916667
    ]
  },
  "properties": {
    "country": "Italy",
    "url": "https://gisis.imo.org/Public/COMSAR/RCC.aspx?CID=ITA&Action=View&ID=809",
    "kind": "Maritime Rescue Sub-Centre (MRSC)",
    "name": "Olbia",
    "mmsi": "002470038",
    "callSign": "ICI 16",
    "VHF_voiceCallSign": "ICI 16",
    "LRIT_ID": "2396",
    "telephone": [
      "+39078926666",
      "+39078921243",
      "+39078926938",
      "+39078926492",
      "+39078956360"
    ],
    "fax": [
      "+39078927737",
      "+39078922308"
    ],
    "email": [
      "so.cpolbia@mit.gov.it"
    ],
    "telex": null,
    "otherLandlineCommunication": null,
    "associatedCRS": "Porto Cervo Radio, Porto Torres Radio",
    "associatedLES": "Fucino",
    "associatedCOSPAS_SARSAT": "MRCC Rome",
    "associatedARCC": "Porto Cervo Radio, Porto Torres Radio",
    "telemedicalAdvice": "Porto Cervo Radio, Porto Torres Radio",
    "facilitiesAvailable": "Porto Cervo Radio, Porto Torres Radio",
    "remarks": null,
    "additionalInformation": null,
    "areaLimitsPlaintext": null,
    "gmlFilename": null,
    "updated": "2020-03-18 00:00:00",
    "fetched": "2024-06-23 15:06:47+00:00"
  }
}