{
  "type": "FeatureCollection",
  "style": {
    "color": "#F5C85F",
    "weight": 2,
    "opacity": 1
  },
  "name": "ne_10m_roads_ferries_cr",
  "crs": {
    "type": "name",
    "properties": { "name": "urn:ogc:def:crs:OGC:1.3:CRS84" }
  },
  "features": [
    {
      "type": "Feature",
      "properties": {
        "Type": "Ferry",
        "Road kind": "Ferry, seasonal",
        "Source": "naturalearthdata.com"
      },
      "geometry": {
        "type": "MultiLineString",
        "coordinates": [
          [
            [-1.938402, 49.031037],
            [-1.93822, 49.029676],
            [-1.935449, 48.972257],
            [-1.937856, 48.893001],
            [-1.947114, 48.83326],
            [-1.964811, 48.763393],
            [-1.978802, 48.724262],
            [-1.987563, 48.67816]
          ]
        ]
      }
    },
    {
      "type": "Feature",
      "properties": {
        "Type": "Ferry",
        "Road kind": "Ferry Route",
        "Source": "naturalearthdata.com"
      },
      "geometry": {
        "type": "MultiLineString",
        "coordinates": [
          [
            [30.756496, 46.497146],
            [30.776896, 46.494555],
            [30.796077, 46.487561],
            [30.813944, 46.477306],
            [30.830366, 46.464962],
            [31.531777, 45.749066],
            [31.771259, 45.412837],
            [32.053231, 44.939001],
            [32.148451, 44.810227],
            [32.252095, 44.691481],
            [32.364827, 44.582161],
            [32.547834, 44.438127],
            [32.688468, 44.348239],
            [32.882448, 44.245925],
            [33.320823, 44.072887],
            [34.258361, 43.801222],
            [37.27771, 43.249628]
          ]
        ]
      }
    },
    {
      "type": "Feature",
      "properties": {
        "Type": "Ferry",
        "Road kind": "Ferry Route",
        "Source": "naturalearthdata.com"
      },
      "geometry": {
        "type": "MultiLineString",
        "coordinates": [
          [
            [29.09437, 41.156102],
            [29.097602, 41.204905],
            [29.104485, 41.253288],
            [29.11509, 41.300983],
            [29.129476, 41.34772],
            [29.162528, 41.424454],
            [29.20457, 41.496678],
            [29.660474, 42.048443],
            [30.672535, 43.99144],
            [30.902199, 44.591331],
            [30.995371, 44.907494],
            [31.054196, 45.174959],
            [31.080569, 45.360014],
            [31.093292, 45.571344],
            [31.091437, 45.668063],
            [31.07928, 45.798908],
            [31.031994, 46.024727],
            [30.999572, 46.132734],
            [30.908103, 46.339198],
            [30.880814, 46.388678],
            [30.826364, 46.466514],
            [30.822199, 46.470866]
          ]
        ]
      }
    },
    {
      "type": "Feature",
      "properties": {
        "Type": "Ferry",
        "Road kind": "Ferry Route",
        "Source": "naturalearthdata.com"
      },
      "geometry": {
        "type": "MultiLineString",
        "coordinates": [
          [
            [29.077593, 41.12466],
            [29.087994, 41.203709],
            [29.09017, 41.248907],
            [29.085707, 41.294251],
            [29.075504, 41.338737],
            [29.060437, 41.381368],
            [29.017321, 41.462488],
            [28.961717, 41.535815],
            [28.897729, 41.602591],
            [27.931501, 42.383052],
            [27.887797, 42.409938],
            [27.842296, 42.433529],
            [27.794636, 42.453082],
            [27.729978, 42.472158],
            [27.66378, 42.484875],
            [27.596683, 42.491963],
            [27.529318, 42.494162]
          ]
        ]
      }
    },
    {
      "type": "Feature",
      "properties": {
        "Type": "Ferry",
        "Road kind": "Ferry Route",
        "Source": "naturalearthdata.com"
      },
      "geometry": {
        "type": "MultiLineString",
        "coordinates": [
          [
            [27.493477, 42.494162],
            [27.521262, 42.493847],
            [27.54893, 42.496098],
            [27.819224, 42.563102],
            [28.025677, 42.649706],
            [28.216233, 42.746296],
            [28.477089, 42.902348],
            [28.801104, 43.144081],
            [29.097485, 43.424432],
            [29.876172, 44.419816],
            [30.073601, 44.725105],
            [30.800988, 46.175003],
            [30.829135, 46.271157],
            [30.8382, 46.320665],
            [30.842348, 46.370822],
            [30.842132, 46.394774],
            [30.841088, 46.406668],
            [30.828032, 46.463568]
          ]
        ]
      }
    },
    {
      "type": "Feature",
      "properties": {
        "Type": "Ferry",
        "Road kind": "Ferry Route",
        "Source": "naturalearthdata.com"
      },
      "geometry": {
        "type": "MultiLineString",
        "coordinates": [
          [
            [15.21737, 44.088766],
            [15.185843, 44.112251],
            [15.150174, 44.128737],
            [15.07403, 44.149539],
            [14.993971, 44.15931],
            [14.44524, 44.143052],
            [14.365718, 44.129623],
            [14.326575, 44.120092],
            [14.28815, 44.107765],
            [14.252992, 44.092593],
            [14.219502, 44.07326],
            [14.188809, 44.049851],
            [14.162059, 44.022392],
            [14.012419, 43.833184],
            [13.958567, 43.779988],
            [13.835595, 43.681519],
            [13.638126, 43.560311],
            [13.623074, 43.55334]
          ]
        ]
      }
    },
    {
      "type": "Feature",
      "properties": {
        "Type": "Ferry",
        "Road kind": "Ferry Route",
        "Source": "naturalearthdata.com"
      },
      "geometry": {
        "type": "MultiLineString",
        "coordinates": [
          [
            [13.623322, 43.553429],
            [14.863555, 43.405298],
            [15.506355, 43.412339],
            [16.342446, 43.481233],
            [16.381452, 43.488239],
            [16.419335, 43.49875],
            [16.454487, 43.515627]
          ]
        ]
      }
    },
    {
      "type": "Feature",
      "properties": {
        "Type": "Ferry",
        "Road kind": "Ferry Route",
        "Source": "naturalearthdata.com"
      },
      "geometry": {
        "type": "MultiLineString",
        "coordinates": [
          [
            [18.091221, 42.637525],
            [16.899882, 41.136772],
            [19.459757, 41.287828],
            [19.417925, 41.277345],
            [19.380885, 41.256129],
            [19.312686, 41.202898],
            [19.268725, 41.175994],
            [18.023109, 40.641345]
          ]
        ]
      }
    },
    {
      "type": "Feature",
      "properties": {
        "Type": "Ferry",
        "Road kind": "Ferry Route",
        "Source": "naturalearthdata.com"
      },
      "geometry": {
        "type": "MultiLineString",
        "coordinates": [
          [
            [9.525251, 40.917163],
            [9.962677, 41.047285],
            [11.455857, 41.780185],
            [11.538121, 41.834571],
            [11.633145, 41.911304],
            [11.664445, 41.943913],
            [11.741701, 42.042779],
            [11.764722, 42.063791],
            [11.791192, 42.080002]
          ]
        ]
      }
    },
    {
      "type": "Feature",
      "properties": {
        "Type": "Ferry",
        "Road kind": "Ferry Route",
        "Source": "naturalearthdata.com"
      },
      "geometry": {
        "type": "MultiLineString",
        "coordinates": [
          [
            [15.622237, 38.125553],
            [15.607933, 38.125145],
            [15.594184, 38.122141],
            [15.581592, 38.11615],
            [15.570756, 38.106798],
            [15.562972, 38.095627],
            [15.557409, 38.083167],
            [15.553629, 38.069972],
            [15.551197, 38.056578],
            [15.548869, 38.026122],
            [15.551197, 37.930015],
            [15.567396, 37.823554],
            [15.67379, 37.518376],
            [15.702357, 37.411559],
            [15.718778, 37.302747],
            [15.721161, 37.192955],
            [15.707618, 37.083181],
            [15.688718, 37.005257],
            [15.640834, 36.85767],
            [15.623403, 36.820377],
            [15.600982, 36.780459],
            [15.557193, 36.714517],
            [15.454273, 36.589517],
            [15.354203, 36.487513],
            [15.11041, 36.284502],
            [14.963179, 36.184872],
            [14.765019, 36.075833],
            [14.616295, 36.01471],
            [14.541151, 35.991516],
            [14.431986, 35.968789],
            [14.399333, 35.96453]
          ]
        ]
      }
    },
    {
      "type": "Feature",
      "properties": {
        "Type": "Ferry",
        "Road kind": "Ferry Route",
        "Source": "naturalearthdata.com"
      },
      "geometry": {
        "type": "MultiLineString",
        "coordinates": [
          [
            [14.226379, 40.749906],
            [14.013379, 40.416173],
            [13.904733, 40.212666],
            [13.777864, 39.911408],
            [13.684085, 39.609951],
            [13.617417, 39.299925],
            [13.576746, 38.988453],
            [13.562792, 38.384408],
            [13.553187, 38.304098],
            [13.520739, 38.170448]
          ]
        ]
      }
    },
    {
      "type": "Feature",
      "properties": {
        "Type": "Ferry",
        "Road kind": "Ferry Route",
        "Source": "naturalearthdata.com"
      },
      "geometry": {
        "type": "MultiLineString",
        "coordinates": [
          [
            [14.275065, 40.782106],
            [12.161947, 39.404088],
            [11.58385, 39.107875],
            [11.065049, 38.900536],
            [10.838215, 38.834589],
            [10.519791, 38.772573],
            [10.198656, 38.751497],
            [9.898555, 38.76349],
            [9.65217, 38.796975],
            [9.536194, 38.827839],
            [9.502238, 38.843736],
            [9.417889, 38.899609]
          ]
        ]
      }
    },
    {
      "type": "Feature",
      "properties": {
        "Type": "Ferry",
        "Road kind": "Ferry Route",
        "Source": "naturalearthdata.com"
      },
      "geometry": {
        "type": "MultiLineString",
        "coordinates": [
          [
            [1.566663, 41.187545],
            [1.592347, 40.561245],
            [1.640182, 40.245007],
            [1.7219, 39.929742],
            [1.748577, 39.862692],
            [1.787891, 39.786449],
            [1.827892, 39.727023],
            [1.852535, 39.695482],
            [1.884739, 39.660621],
            [1.941044, 39.611684],
            [1.971074, 39.589627],
            [2.002773, 39.570079],
            [2.077999, 39.534011],
            [2.154371, 39.509149],
            [2.233082, 39.495201],
            [2.30827, 39.489735],
            [2.390764, 39.494046],
            [2.4293, 39.499693],
            [2.46729, 39.508285],
            [2.494757, 39.516948],
            [2.521506, 39.527676]
          ]
        ]
      }
    },
    {
      "type": "Feature",
      "properties": {
        "Type": "Ferry",
        "Road kind": "Ferry Route",
        "Source": "naturalearthdata.com"
      },
      "geometry": {
        "type": "MultiLineString",
        "coordinates": [
          [
            [11.135703, 38.134435],
            [10.819734, 38.19181],
            [10.522329, 38.269197],
            [10.212146, 38.379963],
            [9.931509, 38.512919],
            [9.662518, 38.682388],
            [9.536842, 38.781778],
            [9.42703, 38.883578],
            [9.17176, 39.186581]
          ]
        ]
      }
    },
    {
      "type": "Feature",
      "properties": {
        "Type": "Ferry",
        "Road kind": "Ferry Route",
        "Source": "naturalearthdata.com"
      },
      "geometry": {
        "type": "MultiLineString",
        "coordinates": [
          [
            [9.166842, 39.190828],
            [9.183508, 39.158428],
            [9.20749, 39.130789],
            [9.236042, 39.107245],
            [9.785978, 38.796088],
            [9.870327, 38.733658],
            [10.127516, 38.477347],
            [10.225023, 38.349699],
            [10.306385, 38.212414],
            [10.372977, 38.069948],
            [10.448352, 37.858672],
            [10.466558, 37.733847],
            [10.476673, 37.530679],
            [10.466613, 37.2339],
            [10.454632, 37.126185]
          ]
        ]
      }
    },
    {
      "type": "Feature",
      "properties": {
        "Type": "Ferry",
        "Road kind": "Ferry Route",
        "Source": "naturalearthdata.com"
      },
      "geometry": {
        "type": "MultiLineString",
        "coordinates": [
          [
            [11.135752, 38.13444],
            [12.115889, 38.103281],
            [12.274402, 38.079778],
            [12.425401, 38.043301],
            [12.587417, 37.984348]
          ]
        ]
      }
    },
    {
      "type": "Feature",
      "properties": {
        "Type": "Ferry",
        "Road kind": "Ferry, seasonal",
        "Source": "naturalearthdata.com"
      },
      "geometry": {
        "type": "MultiLineString",
        "coordinates": [
          [
            [33.038721, 34.644788],
            [33.082782, 34.577038],
            [33.091304, 34.56092],
            [33.108892, 34.515086],
            [33.110246, 34.51392],
            [33.124316, 34.508005],
            [33.125955, 34.506721],
            [33.126725, 34.504767],
            [33.129403, 34.478219],
            [33.12935, 34.458811],
            [33.128394, 34.449168],
            [33.126498, 34.439636],
            [33.120629, 34.420421],
            [33.116715, 34.41121],
            [33.11185, 34.402343],
            [33.106407, 34.394339],
            [33.100358, 34.386762],
            [33.093749, 34.379686],
            [33.076202, 34.364221],
            [33.042951, 34.344376],
            [32.998441, 34.32824],
            [32.961533, 34.31907],
            [32.903181, 34.3113],
            [32.823542, 34.30745],
            [32.743168, 34.311405],
            [32.587397, 34.337305],
            [32.381283, 34.396293],
            [31.834441, 34.624196],
            [30.130745, 35.588901]
          ]
        ]
      }
    },
    {
      "type": "Feature",
      "properties": {
        "Type": "Ferry",
        "Road kind": "Ferry Route",
        "Source": "naturalearthdata.com"
      },
      "geometry": {
        "type": "MultiLineString",
        "coordinates": [
          [
            [23.279036, 39.070939],
            [23.350877, 39.063129],
            [23.758568, 38.979807],
            [23.83277, 38.975911],
            [23.999674, 38.988791],
            [24.389479, 39.053035],
            [24.879392, 39.058303],
            [25.474605, 38.983926],
            [25.89542, 38.995184],
            [25.99028, 39.018433]
          ]
        ]
      }
    },
    {
      "type": "Feature",
      "properties": {
        "Type": "Ferry",
        "Road kind": "Ferry Route",
        "Source": "naturalearthdata.com"
      },
      "geometry": {
        "type": "MultiLineString",
        "coordinates": [
          [
            [25.134169, 37.621599],
            [25.15248, 37.652493],
            [25.169625, 37.688754],
            [25.188636, 37.744184],
            [25.198004, 37.793039],
            [25.200653, 37.833833],
            [25.199148, 37.875186],
            [25.196651, 37.895527],
            [25.188799, 37.933235],
            [25.183666, 37.949755],
            [25.169525, 37.984272],
            [25.155683, 38.010377],
            [25.134688, 38.044054],
            [25.097249, 38.089753],
            [25.069901, 38.117643],
            [25.040629, 38.143514],
            [24.300839, 38.629624],
            [24.251278, 38.671211],
            [24.210175, 38.698692],
            [24.165322, 38.719611],
            [23.61106, 38.913866],
            [23.59246, 38.922727],
            [23.453445, 39.006764],
            [23.367411, 39.044692],
            [23.334749, 39.055815],
            [23.278916, 39.07107]
          ]
        ]
      }
    },
    {
      "type": "Feature",
      "properties": {
        "Type": "Ferry",
        "Road kind": "Ferry Route",
        "Source": "naturalearthdata.com"
      },
      "geometry": {
        "type": "MultiLineString",
        "coordinates": [
          [
            [22.523542, 38.871246],
            [22.578995, 38.857468],
            [22.635461, 38.849931],
            [22.692375, 38.849114],
            [22.749161, 38.855502],
            [22.882336, 38.888117],
            [22.894073, 38.892224],
            [22.997259, 38.942695],
            [23.027531, 38.961689],
            [23.030256, 38.964115],
            [23.032256, 38.966886],
            [23.034499, 38.969435],
            [23.037871, 38.971594],
            [23.044845, 38.975187],
            [23.133701, 39.030185],
            [23.157075, 39.041316],
            [23.180896, 39.049296],
            [23.279543, 39.071055],
            [23.398033, 39.085335],
            [23.436896, 39.094645],
            [23.455834, 39.101062],
            [23.473784, 39.109707],
            [23.489794, 39.120196],
            [23.504363, 39.133088],
            [23.51565, 39.148581],
            [23.521805, 39.166858],
            [23.523085, 39.186073],
            [23.52128, 39.20509],
            [23.516625, 39.22367],
            [23.509333, 39.241579],
            [23.489196, 39.277355],
            [23.119858, 39.754481],
            [22.947974, 40.014958],
            [22.876616, 40.147045],
            [22.845436, 40.225045],
            [22.840647, 40.242259],
            [22.837655, 40.25987],
            [22.836021, 40.279144],
            [22.836313, 40.288839],
            [22.838101, 40.298336],
            [22.862925, 40.374311],
            [22.896476, 40.448286],
            [22.917346, 40.483835],
            [22.941318, 40.517372]
          ]
        ]
      }
    },
    {
      "type": "Feature",
      "properties": {
        "Type": "Ferry",
        "Road kind": "Ferry Route",
        "Source": "naturalearthdata.com"
      },
      "geometry": {
        "type": "MultiLineString",
        "coordinates": [
          [
            [25.948376, 37.33143],
            [25.32252, 37.399939],
            [25.08291, 37.449967],
            [24.86391, 37.527103],
            [24.711213, 37.563037],
            [24.630886, 37.573695],
            [24.549987, 37.578023],
            [24.470267, 37.573269],
            [24.431037, 37.566356],
            [24.392518, 37.555564],
            [24.374598, 37.548342],
            [24.318672, 37.519665],
            [24.292456, 37.509841],
            [24.25962, 37.500543],
            [24.193527, 37.488549],
            [24.145972, 37.484711],
            [24.079319, 37.486076],
            [23.994453, 37.499738],
            [23.958939, 37.509573],
            [23.885146, 37.540782],
            [23.849491, 37.561409],
            [23.792991, 37.604676],
            [23.755573, 37.642734],
            [23.71496, 37.697901],
            [23.676934, 37.768894],
            [23.649899, 37.834358],
            [23.649141, 37.837893],
            [23.642298, 37.889799]
          ]
        ]
      }
    },
    {
      "type": "Feature",
      "properties": {
        "Type": "Ferry",
        "Road kind": "Ferry Route",
        "Source": "naturalearthdata.com"
      },
      "geometry": {
        "type": "MultiLineString",
        "coordinates": [
          [
            [27.641484, 36.283948],
            [27.051947, 36.506472],
            [26.982127, 36.544815],
            [26.915736, 36.588876],
            [26.790462, 36.690728],
            [26.306009, 37.206868],
            [26.273651, 37.2326],
            [26.250119, 37.248315],
            [26.241643, 37.252591],
            [26.203707, 37.267612],
            [26.069613, 37.302426],
            [25.946533, 37.321653],
            [25.5405, 37.336774],
            [25.516944, 37.334254]
          ]
        ]
      }
    },
    {
      "type": "Feature",
      "properties": {
        "Type": "Ferry",
        "Road kind": "Ferry Route",
        "Source": "naturalearthdata.com"
      },
      "geometry": {
        "type": "MultiLineString",
        "coordinates": [
          [
            [26.216833, 35.271012],
            [26.246198, 35.304035],
            [26.249349, 35.308136],
            [26.251274, 35.310096],
            [26.253263, 35.311006],
            [26.347158, 35.317353],
            [26.348634, 35.317662],
            [26.349959, 35.318356],
            [26.446298, 35.394098],
            [26.515349, 35.433264],
            [26.551412, 35.449108],
            [26.588705, 35.46151],
            [26.627119, 35.469373],
            [26.670176, 35.473142],
            [26.710164, 35.471496],
            [26.743771, 35.465476],
            [26.778783, 35.454352],
            [26.822021, 35.435224],
            [26.857033, 35.422583],
            [26.875835, 35.417432],
            [26.934222, 35.407643],
            [27.010903, 35.403501],
            [27.087572, 35.408437],
            [27.254124, 35.44006],
            [27.361273, 35.473853],
            [27.475353, 35.521839],
            [27.541703, 35.557202],
            [27.608432, 35.60366],
            [27.636106, 35.629514],
            [27.648741, 35.644342],
            [27.659842, 35.660384],
            [27.667665, 35.676817],
            [27.671894, 35.694884],
            [27.678276, 35.811477],
            [27.671422, 35.894038],
            [27.665472, 35.921141],
            [27.66483, 35.930194],
            [27.665052, 35.934995],
            [27.665629, 35.939977],
            [27.666965, 35.944761],
            [27.669397, 35.948978],
            [27.678416, 35.959735],
            [27.681852, 35.96292],
            [27.731349, 35.998434],
            [27.736943, 36.005388],
            [27.739043, 36.014121],
            [27.737789, 36.018449],
            [27.734878, 36.022573],
            [27.717074, 36.043113],
            [27.692982, 36.07973],
            [27.674723, 36.113161],
            [27.659801, 36.148821],
            [27.649004, 36.185881],
            [27.643135, 36.22349],
            [27.642686, 36.243312],
            [27.644669, 36.262714],
            [27.648986, 36.281725]
          ]
        ]
      }
    },
    {
      "type": "Feature",
      "properties": {
        "Type": "Ferry",
        "Road kind": "Ferry, seasonal",
        "Source": "naturalearthdata.com"
      },
      "geometry": {
        "type": "MultiLineString",
        "coordinates": [
          [
            [27.648986, 36.281725],
            [27.655572, 36.300363],
            [27.66497, 36.317351],
            [27.677419, 36.332156],
            [27.691985, 36.345013],
            [27.707776, 36.356178],
            [27.77608, 36.390047],
            [27.845043, 36.417161],
            [27.997134, 36.460131],
            [28.154136, 36.486212],
            [28.234638, 36.49148],
            [28.315233, 36.489695],
            [28.355753, 36.484515],
            [28.776154, 36.335563],
            [29.331746, 36.070256],
            [33.65868, 33.387814],
            [34.97428, 32.81261]
          ]
        ]
      }
    },
    {
      "type": "Feature",
      "properties": {
        "Type": "Ferry",
        "Road kind": "Ferry Route",
        "Source": "naturalearthdata.com"
      },
      "geometry": {
        "type": "MultiLineString",
        "coordinates": [
          [
            [23.66873, 37.948005],
            [23.640525, 37.877041],
            [23.613487, 37.762408],
            [23.599676, 37.598172],
            [23.624888, 37.254872],
            [23.610351, 36.602981],
            [23.610395, 36.602152],
            [23.61059, 36.601417],
            [23.662044, 36.485693],
            [23.662397, 36.484025],
            [23.661522, 36.381991],
            [23.672101, 36.304167],
            [23.690777, 36.228606],
            [23.782789, 35.962442],
            [23.787922, 35.937825],
            [23.816497, 35.593649],
            [23.818382, 35.583499],
            [23.821555, 35.573705],
            [23.830014, 35.554939]
          ]
        ]
      }
    },
    {
      "type": "Feature",
      "properties": {
        "Type": "Ferry",
        "Road kind": "Ferry Route",
        "Source": "naturalearthdata.com"
      },
      "geometry": {
        "type": "MultiLineString",
        "coordinates": [
          [
            [22.064311, 37.030948],
            [22.052104, 36.993923],
            [22.047927, 36.975022],
            [22.043666, 36.93588],
            [22.043929, 36.896516],
            [22.050585, 36.837242],
            [22.069071, 36.759971],
            [22.0874, 36.702908],
            [22.11809, 36.63097],
            [22.192601, 36.502219],
            [22.216553, 36.468018],
            [22.2193, 36.465124],
            [22.22213, 36.463327],
            [22.277906, 36.43815],
            [22.279933, 36.436966],
            [22.637423, 36.084501],
            [22.784783, 35.89468],
            [22.898034, 35.784445],
            [23.143889, 35.593002],
            [23.219514, 35.546497],
            [23.296116, 35.507641],
            [23.297117, 35.510207],
            [23.29779, 35.510645],
            [23.299106, 35.510388],
            [23.371222, 35.486214],
            [23.403636, 35.478975],
            [23.444476, 35.473422],
            [23.470275, 35.473352],
            [23.495965, 35.475662],
            [23.50753, 35.477966],
            [23.518684, 35.481472],
            [23.540166, 35.490945]
          ]
        ]
      }
    },
    {
      "type": "Feature",
      "properties": {
        "Type": "Ferry",
        "Road kind": "Ferry, seasonal",
        "Source": "naturalearthdata.com"
      },
      "geometry": {
        "type": "MultiLineString",
        "coordinates": [
          [
            [2.590041, 39.405873],
            [2.378747, 39.334191],
            [2.270635, 39.3078],
            [2.159953, 39.293637],
            [1.210514, 39.265327],
            [0.263703, 39.305228],
            [0.034839, 39.337388],
            [-0.188461, 39.393564],
            [-0.253574, 39.418765],
            [-0.280362, 39.431867],
            [-0.306429, 39.447547],
            [-0.329905, 39.466518],
            [-0.348911, 39.489502]
          ]
        ]
      }
    },
    {
      "type": "Feature",
      "properties": {
        "Type": "Ferry",
        "Road kind": "Ferry Route",
        "Source": "naturalearthdata.com"
      },
      "geometry": {
        "type": "MultiLineString",
        "coordinates": [
          [
            [18.023322, 40.641281],
            [18.390892, 40.484938],
            [18.539293, 40.406226],
            [18.672454, 40.322779],
            [19.533915, 39.693632],
            [19.856769, 39.408585],
            [19.944484, 39.349387],
            [19.990017, 39.32491],
            [20.013748, 39.314661],
            [20.038219, 39.306371],
            [20.060211, 39.301115],
            [20.083113, 39.298251],
            [20.106051, 39.298759],
            [20.128148, 39.303653],
            [20.138053, 39.30818],
            [20.14659, 39.314468],
            [20.15348, 39.322466],
            [20.158473, 39.332138],
            [20.16312, 39.353523],
            [20.160754, 39.419914],
            [20.16134, 39.429154],
            [20.16298, 39.438365],
            [20.166162, 39.447045],
            [20.171377, 39.454705],
            [20.180451, 39.461623],
            [20.19119, 39.465491],
            [20.202697, 39.467072],
            [20.218018, 39.466868],
            [20.229726, 39.465608]
          ]
        ]
      }
    },
    {
      "type": "Feature",
      "properties": {
        "Type": "Ferry",
        "Road kind": "Ferry Route",
        "Source": "naturalearthdata.com"
      },
      "geometry": {
        "type": "MultiLineString",
        "coordinates": [
          [
            [-5.489288, 36.130329],
            [-5.481318, 36.125639],
            [-5.473865, 36.120039],
            [-5.467471, 36.113319],
            [-5.462676, 36.105263],
            [-5.455772, 36.087943],
            [-5.453207, 36.078936],
            [-5.448288, 36.028623],
            [-5.433908, 35.960826],
            [-5.405619, 35.886852]
          ]
        ]
      }
    },
    {
      "type": "Feature",
      "properties": {
        "Type": "Ferry",
        "Road kind": "Ferry Route",
        "Source": "naturalearthdata.com"
      },
      "geometry": {
        "type": "MultiLineString",
        "coordinates": [
          [
            [-4.071174, 49.027815],
            [-4.063715, 48.990367],
            [-4.039473, 48.914418],
            [-4.025191, 48.879374],
            [-3.989647, 48.814033],
            [-3.967458, 48.78311],
            [-3.928588, 48.739551]
          ]
        ]
      }
    },
    {
      "type": "Feature",
      "properties": {
        "Type": "Ferry",
        "Road kind": "Ferry Route",
        "Source": "naturalearthdata.com"
      },
      "geometry": {
        "type": "MultiLineString",
        "coordinates": [
          [
            [10.09878, 41.907569],
            [10.056786, 41.535348],
            [10.017669, 41.361096],
            [9.984325, 41.280227],
            [9.938442, 41.205809],
            [9.882496, 41.13831],
            [9.818972, 41.078202],
            [9.752126, 41.02706],
            [9.680325, 40.982638],
            [9.604426, 40.945735],
            [9.525251, 40.917163]
          ]
        ]
      }
    },
    {
      "type": "Feature",
      "properties": {
        "Type": "Ferry",
        "Road kind": "Ferry Route",
        "Source": "naturalearthdata.com"
      },
      "geometry": {
        "type": "MultiLineString",
        "coordinates": [
          [
            [7.262944, 43.698366],
            [7.321868, 43.608344],
            [7.325753, 43.603782],
            [7.471753, 43.46389],
            [7.658416, 43.3173],
            [7.729625, 43.27058],
            [7.861056, 43.197504],
            [7.932595, 43.165647],
            [8.006362, 43.139426],
            [8.082017, 43.119452],
            [8.159255, 43.107103],
            [8.248011, 43.101642],
            [8.48481, 43.115322],
            [9.182808, 43.211563],
            [9.266991, 43.208669],
            [9.30492, 43.203098],
            [9.323555, 43.198548],
            [9.350707, 43.188835],
            [9.368004, 43.180126],
            [9.376179, 43.174917],
            [9.384299, 43.168482],
            [9.398501, 43.153741],
            [9.41062, 43.139111],
            [9.448584, 43.075246],
            [9.484991, 42.996937],
            [9.49746, 42.95993],
            [9.515474, 42.879562],
            [9.526283, 42.602349]
          ]
        ]
      }
    },
    {
      "type": "Feature",
      "properties": {
        "Type": "Ferry",
        "Road kind": "Ferry Route",
        "Source": "naturalearthdata.com"
      },
      "geometry": {
        "type": "MultiLineString",
        "coordinates": [
          [
            [8.687669, 44.036661],
            [8.462572, 43.444493],
            [8.390943, 43.131201],
            [8.364838, 42.829902],
            [8.393463, 42.33555],
            [8.485095, 41.714401],
            [8.581715, 41.416095],
            [8.602972, 41.300609],
            [8.606111, 41.224791],
            [8.601324, 41.145159],
            [8.594771, 41.105514],
            [8.58434, 41.061781],
            [8.560187, 40.991692],
            [8.544063, 40.957869],
            [8.514779, 40.909556],
            [8.510197, 40.903839],
            [8.505119, 40.898963],
            [8.409097, 40.821646]
          ]
        ]
      }
    },
    {
      "type": "Feature",
      "properties": {
        "Type": "Ferry",
        "Road kind": "Ferry Route",
        "Source": "naturalearthdata.com"
      },
      "geometry": {
        "type": "MultiLineString",
        "coordinates": [
          [
            [8.923513, 44.388175],
            [8.927535, 44.377908],
            [8.936857, 44.332483],
            [9.013398, 44.163183],
            [9.026795, 44.140211],
            [9.051549, 44.088101],
            [9.054775, 44.083212],
            [9.058476, 44.078773],
            [9.080291, 44.058315],
            [9.192206, 43.923293],
            [9.653549, 43.49332],
            [9.796341, 43.335086],
            [9.855478, 43.250198],
            [9.904867, 43.15954],
            [9.942339, 43.062809],
            [9.967312, 42.961196],
            [10.014799, 42.279525],
            [10.587206, 39.692722],
            [10.65073, 39.06773],
            [10.660329, 38.434115],
            [10.608367, 37.813719],
            [10.55166, 37.489798],
            [10.473304, 37.179783],
            [10.381383, 36.925],
            [10.515466, 36.995165],
            [10.809546, 37.112453],
            [10.962491, 37.157278],
            [11.825924, 37.295006],
            [11.88376, 37.31407],
            [11.902244, 37.322435],
            [11.971799, 37.364074],
            [12.093914, 37.460735],
            [12.228869, 37.607809],
            [12.300781, 37.704621],
            [12.383325, 37.838056],
            [12.408692, 37.885027]
          ]
        ]
      }
    },
    {
      "type": "Feature",
      "properties": {
        "Type": "Ferry",
        "Road kind": "Ferry Route",
        "Source": "naturalearthdata.com"
      },
      "geometry": {
        "type": "MultiLineString",
        "coordinates": [
          [
            [1.369375, 38.854983],
            [1.356669, 38.823435],
            [1.340855, 38.793381],
            [1.321826, 38.765293],
            [1.299487, 38.739649],
            [1.276622, 38.719103],
            [1.251652, 38.701294],
            [1.224926, 38.686209],
            [1.196788, 38.673836],
            [1.133463, 38.655676],
            [1.06797, 38.647276],
            [1.001699, 38.646663],
            [0.869329, 38.661673],
            [0.737904, 38.69203],
            [0.329097, 38.840901],
            [0.30452, 38.847475],
            [0.260944, 38.855006],
            [0.216405, 38.857625],
            [0.172036, 38.854393],
            [0.128967, 38.844366]
          ]
        ]
      }
    },
    {
      "type": "Feature",
      "properties": {
        "Type": "Ferry",
        "Road kind": "Ferry Route",
        "Source": "naturalearthdata.com"
      },
      "geometry": {
        "type": "MultiLineString",
        "coordinates": [
          [
            [1.514815, 39.137066],
            [1.550247, 39.155891],
            [1.590825, 39.161777],
            [1.632855, 39.159537],
            [1.722825, 39.147706],
            [1.823604, 39.142573],
            [1.943368, 39.149515],
            [2.079495, 39.174295],
            [2.285478, 39.239922],
            [2.406214, 39.292418],
            [2.595851, 39.406608]
          ]
        ]
      }
    },
    {
      "type": "Feature",
      "properties": {
        "Type": "Ferry",
        "Road kind": "Ferry Route",
        "Source": "naturalearthdata.com"
      },
      "geometry": {
        "type": "MultiLineString",
        "coordinates": [
          [
            [19.339678, 39.824016],
            [19.544544, 39.633437],
            [20.332317, 38.67873],
            [20.389356, 38.620244],
            [20.4182, 38.596081],
            [20.449281, 38.57462],
            [20.482637, 38.557195],
            [20.518288, 38.54512],
            [20.558658, 38.540267],
            [20.640027, 38.542973],
            [20.680476, 38.539182],
            [20.717329, 38.522655],
            [20.747071, 38.495098],
            [20.774057, 38.463498],
            [20.802635, 38.434832],
            [20.81233, 38.427797],
            [20.905817, 38.382792],
            [21.044435, 38.328255],
            [21.178597, 38.287444],
            [21.260364, 38.269395],
            [21.356815, 38.25711],
            [21.434007, 38.256806],
            [21.49293, 38.264571],
            [21.572105, 38.284189],
            [21.719091, 38.33277],
            [21.790581, 38.350364],
            [21.830794, 38.355608],
            [21.878567, 38.357702],
            [21.91451, 38.356022],
            [21.990608, 38.345195],
            [22.068496, 38.32392],
            [22.519926, 38.164579],
            [22.636187, 38.109873],
            [22.92159, 37.938847]
          ]
        ]
      }
    },
    {
      "type": "Feature",
      "properties": {
        "Type": "Ferry",
        "Road kind": "Ferry Route",
        "Source": "naturalearthdata.com"
      },
      "geometry": {
        "type": "MultiLineString",
        "coordinates": [
          [
            [16.899619, 41.136262],
            [18.272484, 41.018607],
            [18.739816, 40.910828],
            [18.893959, 40.855334],
            [18.967948, 40.819248],
            [18.999399, 40.800359],
            [19.086099, 40.73618],
            [19.107007, 40.717845],
            [19.126251, 40.697994],
            [19.160473, 40.65433]
          ]
        ]
      }
    },
    {
      "type": "Feature",
      "properties": {
        "Type": "Ferry",
        "Road kind": "Ferry Route",
        "Source": "naturalearthdata.com"
      },
      "geometry": {
        "type": "MultiLineString",
        "coordinates": [
          [
            [15.743112, 43.136661],
            [15.788777, 43.117189],
            [15.87503, 43.06796],
            [16.710781, 42.462002],
            [17.257757, 42.142146],
            [19.036328, 41.311413],
            [19.113196, 41.28361],
            [19.198248, 41.260049],
            [19.269644, 41.248738],
            [19.297957, 41.247105],
            [19.326258, 41.247781],
            [19.354253, 41.251328],
            [19.378867, 41.257815],
            [19.40181, 41.268525],
            [19.421221, 41.284159],
            [19.435253, 41.305439]
          ]
        ]
      }
    },
    {
      "type": "Feature",
      "properties": {
        "Type": "Ferry",
        "Road kind": "Ferry Route",
        "Source": "naturalearthdata.com"
      },
      "geometry": {
        "type": "MultiLineString",
        "coordinates": [
          [
            [13.62185, 43.554223],
            [14.900149, 43.463277],
            [14.975774, 43.451639],
            [15.050311, 43.434506],
            [15.780499, 43.123979],
            [15.936781, 43.080158],
            [17.184173, 42.966131],
            [17.229269, 42.954405],
            [17.272279, 42.936619],
            [17.353408, 42.883885],
            [17.39473, 42.861093],
            [17.484519, 42.823485],
            [17.532403, 42.808394],
            [17.586651, 42.797129],
            [17.696682, 42.783409],
            [17.750928, 42.772185],
            [17.773013, 42.764666],
            [17.793932, 42.75493],
            [17.813882, 42.743269],
            [17.904736, 42.67588],
            [17.926384, 42.66335],
            [17.949102, 42.65334],
            [17.97283, 42.646124],
            [17.997494, 42.641982],
            [18.028455, 42.640885],
            [18.121088, 42.649472]
          ]
        ]
      }
    },
    {
      "type": "Feature",
      "properties": {
        "Type": "Ferry",
        "Road kind": "Ferry Route",
        "Source": "naturalearthdata.com"
      },
      "geometry": {
        "type": "MultiLineString",
        "coordinates": [
          [
            [10.328949, 43.553976],
            [10.246814, 43.417782],
            [10.145947, 43.188299],
            [10.043514, 42.887577],
            [10.020985, 42.78415],
            [10.009015, 42.679281],
            [10.010765, 42.573666],
            [10.017923, 42.520751],
            [10.02959, 42.46885],
            [10.045684, 42.418152],
            [10.13659, 42.230144],
            [11.685195, 40.102594],
            [11.923638, 39.831291],
            [12.076312, 39.686253],
            [12.736918, 39.183932],
            [13.122869, 38.950284],
            [13.189558, 38.895041],
            [13.249835, 38.83327],
            [13.306221, 38.761285],
            [13.459423, 38.517189],
            [13.479893, 38.47401],
            [13.497087, 38.428906],
            [13.510055, 38.382541],
            [13.518329, 38.33515],
            [13.523967, 38.216334],
            [13.52309, 38.202187],
            [13.52052, 38.188345],
            [13.515535, 38.175336]
          ]
        ]
      }
    },
    {
      "type": "Feature",
      "properties": {
        "Type": "Ferry",
        "Road kind": "Ferry Route",
        "Source": "naturalearthdata.com"
      },
      "geometry": {
        "type": "MultiLineString",
        "coordinates": [
          [
            [5.417424, 43.204082],
            [5.274652, 43.055416],
            [5.200125, 42.977296],
            [5.148513, 42.915625],
            [5.054918, 42.785182],
            [4.974594, 42.644724],
            [4.914325, 42.502218],
            [4.890201, 42.428617],
            [4.35764, 38.798678],
            [3.95067, 37.351392],
            [3.892863, 37.217829],
            [3.813589, 37.073433],
            [3.767858, 37.007007],
            [3.693038, 36.917009],
            [3.638687, 36.866491],
            [3.560629, 36.809393]
          ]
        ]
      }
    },
    {
      "type": "Feature",
      "properties": {
        "Type": "Ferry",
        "Road kind": "Ferry Route",
        "Source": "naturalearthdata.com"
      },
      "geometry": {
        "type": "MultiLineString",
        "coordinates": [
          [
            [2.14714, 41.303036],
            [2.186916, 41.141122],
            [2.22838, 40.828908],
            [2.229273, 40.512512],
            [2.214222, 40.361122],
            [2.186114, 40.200649],
            [2.127283, 39.98446],
            [2.010908, 39.678827],
            [1.990713, 39.604293],
            [1.98357, 39.564695],
            [1.978696, 39.506144],
            [1.979241, 39.487378],
            [1.981207, 39.468723],
            [1.984646, 39.450516],
            [1.989806, 39.431943],
            [1.996884, 39.413643],
            [2.006308, 39.396516],
            [2.018474, 39.381489],
            [2.032501, 39.368632],
            [2.047907, 39.357163],
            [2.064623, 39.347818],
            [2.08259, 39.341314],
            [2.124667, 39.331642],
            [2.181771, 39.327897],
            [2.27349, 39.337382],
            [2.569662, 39.400844],
            [2.578575, 39.403907],
            [2.5869, 39.408265],
            [2.603076, 39.418951],
            [2.6107, 39.424983],
            [2.617493, 39.431855],
            [2.629359, 39.446999],
            [2.639891, 39.463298],
            [2.648405, 39.480687],
            [2.654227, 39.499115],
            [2.662782, 39.547603]
          ]
        ]
      }
    },
    {
      "type": "Feature",
      "properties": {
        "Type": "Ferry",
        "Road kind": "Ferry Route",
        "Source": "naturalearthdata.com"
      },
      "geometry": {
        "type": "MultiLineString",
        "coordinates": [
          [
            [12.308892, 44.463421],
            [12.697168, 44.393728],
            [13.072804, 44.300043],
            [13.274047, 44.219646],
            [13.414036, 44.145735],
            [13.592056, 44.042868]
          ]
        ]
      }
    },
    {
      "type": "Feature",
      "properties": {
        "Type": "Ferry",
        "Road kind": "Ferry Route",
        "Source": "naturalearthdata.com"
      },
      "geometry": {
        "type": "MultiLineString",
        "coordinates": [
          [
            [16.560583, 42.766293],
            [17.565137, 41.973407],
            [19.058583, 40.592414],
            [19.313415, 40.252905],
            [19.38085, 40.182763],
            [19.401848, 40.166861],
            [19.447256, 40.141142],
            [19.610917, 40.069886],
            [19.628659, 40.059945],
            [19.64541, 40.047934],
            [19.810311, 39.886726],
            [19.828001, 39.873018],
            [19.847278, 39.861951],
            [19.868663, 39.854385],
            [19.910874, 39.844591],
            [19.930393, 39.835987],
            [19.946286, 39.821525],
            [19.95485, 39.80581],
            [19.959733, 39.788455],
            [19.962051, 39.770378],
            [19.96444, 39.697237],
            [19.967412, 39.679089],
            [19.977099, 39.643774],
            [19.99037, 39.609484],
            [20.008314, 39.577651],
            [20.032003, 39.549709],
            [20.045829, 39.53803],
            [20.060897, 39.528002],
            [20.189904, 39.471581]
          ]
        ]
      }
    },
    {
      "type": "Feature",
      "properties": {
        "Type": "Ferry",
        "Road kind": "Ferry Route",
        "Source": "naturalearthdata.com"
      },
      "geometry": {
        "type": "MultiLineString",
        "coordinates": [
          [
            [13.704796, 45.628885],
            [13.552388, 45.587158],
            [13.4787, 45.559455],
            [13.407657, 45.525574],
            [13.340251, 45.483941],
            [13.309208, 45.459446],
            [13.280814, 45.431725],
            [13.256987, 45.400948],
            [13.238923, 45.367026],
            [13.227577, 45.330468],
            [13.223905, 45.29178],
            [13.225439, 45.27197],
            [13.228651, 45.252346],
            [13.238008, 45.221055],
            [13.262374, 45.164867],
            [13.330941, 45.040486],
            [13.416048, 44.913783],
            [13.581786, 44.710941],
            [13.961084, 44.342224],
            [14.47849, 43.944212],
            [17.680768, 42.083905],
            [19.012989, 41.430101],
            [19.115973, 41.394487],
            [19.366456, 41.339367],
            [19.4472, 41.311413]
          ]
        ]
      }
    },
    {
      "type": "Feature",
      "properties": {
        "Type": "Ferry",
        "Road kind": "Ferry Route",
        "Source": "naturalearthdata.com"
      },
      "geometry": {
        "type": "MultiLineString",
        "coordinates": [
          [
            [15.295002, 37.491431],
            [15.617118, 37.479175],
            [15.925942, 37.502567],
            [16.233229, 37.560598],
            [16.53447, 37.652178],
            [16.826774, 37.77527],
            [17.105518, 37.92599],
            [17.370182, 38.101846],
            [17.620972, 38.301584],
            [17.855639, 38.522685],
            [18.06849, 38.758771],
            [18.253, 39.000656],
            [18.423422, 39.271079],
            [18.49681, 39.40928],
            [18.698302, 39.935103],
            [18.794294, 40.311421],
            [18.81608, 40.468884],
            [18.82004, 40.556217],
            [18.814306, 40.633079],
            [18.807443, 40.671883],
            [18.797304, 40.710016],
            [18.769587, 40.783816],
            [18.732136, 40.852587],
            [18.688181, 40.910501],
            [18.634075, 40.965645],
            [18.604902, 40.990945],
            [18.523624, 41.048288],
            [18.449968, 41.091502],
            [16.172447, 42.175765],
            [15.100368, 42.834213],
            [13.218343, 44.342294],
            [13.088236, 44.450815],
            [12.943481, 44.589926],
            [12.825362, 44.746169],
            [12.408216, 45.350477],
            [12.382333, 45.381592],
            [12.352699, 45.40922]
          ]
        ]
      }
    },
    {
      "type": "Feature",
      "properties": {
        "Type": "Ferry",
        "Road kind": "Ferry Route",
        "Source": "naturalearthdata.com"
      },
      "geometry": {
        "type": "MultiLineString",
        "coordinates": [
          [
            [8.388665, 40.826978],
            [8.339702, 40.886263],
            [8.317777, 40.917933],
            [8.272596, 41.004683],
            [8.24718, 41.083569],
            [8.239025, 41.122892],
            [8.234571, 41.161049],
            [8.233766, 41.236581],
            [8.241411, 41.294303],
            [8.259174, 41.371078],
            [8.287125, 41.444883],
            [8.322239, 41.515269],
            [8.364911, 41.581794],
            [8.412877, 41.645204],
            [8.596451, 41.829682],
            [8.659852, 41.881343],
            [8.713068, 41.918059],
            [8.677145, 41.903931],
            [8.658662, 41.898284],
            [6.759393, 41.742752],
            [6.546873, 41.75037],
            [6.362976, 41.776201],
            [6.282203, 41.79429],
            [6.076625, 41.860658],
            [5.780865, 41.982589],
            [5.503486, 42.136103],
            [5.366805, 42.23337],
            [5.30516, 42.287143],
            [5.247184, 42.345385],
            [5.196733, 42.40537],
            [5.15236, 42.469731],
            [5.127472, 42.513021],
            [5.11869, 42.531152],
            [5.115446, 42.540264],
            [5.112961, 42.549626],
            [5.111103, 42.559485],
            [5.109648, 42.579021],
            [5.11068, 42.598709],
            [5.116345, 42.637665],
            [5.12424, 42.67315],
            [5.271016, 43.046326]
          ]
        ]
      }
    },
    {
      "type": "Feature",
      "properties": {
        "Type": "Ferry",
        "Road kind": "Ferry Route",
        "Source": "naturalearthdata.com"
      },
      "geometry": {
        "type": "MultiLineString",
        "coordinates": [
          [
            [2.260391, 41.436459],
            [3.535566, 41.497956],
            [4.158546, 41.587325],
            [4.468805, 41.655629],
            [5.655183, 42.069088],
            [6.82912, 42.601288],
            [7.382265, 42.908794],
            [7.894091, 43.258394],
            [8.322508, 43.632133],
            [8.69457, 44.045464],
            [8.720797, 44.081311],
            [8.755859, 44.142084],
            [8.882863, 44.329642],
            [8.904473, 44.356149],
            [8.910639, 44.364905],
            [8.915726, 44.374268],
            [8.916901, 44.377068],
            [8.917881, 44.379955],
            [8.918601, 44.382913],
            [8.91901, 44.385923]
          ]
        ]
      }
    },
    {
      "type": "Feature",
      "properties": {
        "Type": "Ferry",
        "Road kind": "Ferry Route",
        "Source": "naturalearthdata.com"
      },
      "geometry": {
        "type": "MultiLineString",
        "coordinates": [
          [
            [4.85107, 42.169161],
            [4.852832, 41.944578],
            [4.87441, 41.771021],
            [4.92648, 41.553572],
            [4.977132, 41.405787],
            [5.047317, 41.245798],
            [5.194653, 40.984936],
            [5.294957, 40.83959],
            [5.490615, 40.597214],
            [5.936718, 40.158152],
            [6.444782, 39.756261],
            [7.486372, 39.07984],
            [8.611839, 38.471799],
            [9.783394, 37.944045],
            [10.039606, 37.770808],
            [10.159901, 37.66668],
            [10.271495, 37.54794],
            [10.361328, 37.426137],
            [10.405875, 37.353574],
            [10.42262, 37.319577],
            [10.436134, 37.284185],
            [10.446721, 37.245427],
            [10.45366, 37.206139],
            [10.456463, 37.166378],
            [10.454632, 37.126185],
            [10.44764, 37.086553],
            [10.437093, 37.047702],
            [10.430662, 37.029344],
            [10.413829, 36.993999],
            [10.393269, 36.958053],
            [10.352018, 36.906543]
          ]
        ]
      }
    },
    {
      "type": "Feature",
      "properties": {
        "Type": "Ferry",
        "Road kind": "Ferry Route",
        "Source": "naturalearthdata.com"
      },
      "geometry": {
        "type": "MultiLineString",
        "coordinates": [
          [
            [8.916764, 44.372424],
            [8.916988, 44.138269],
            [8.913077, 44.083049],
            [8.915072, 44.055812],
            [8.921871, 44.02871],
            [8.928235, 44.013415],
            [8.944479, 43.98465],
            [9.018678, 43.886974],
            [9.072346, 43.831696],
            [9.37832, 43.580752],
            [9.444014, 43.509507],
            [9.490839, 43.447632],
            [9.539353, 43.362655],
            [9.569644, 43.286581],
            [9.586707, 43.22904],
            [9.600194, 43.151676],
            [9.607229, 43.05816],
            [9.605082, 42.98149],
            [9.587418, 42.842269],
            [9.528156, 42.614705]
          ]
        ]
      }
    },
    {
      "type": "Feature",
      "properties": {
        "Type": "Ferry",
        "Road kind": "Ferry Route",
        "Source": "naturalearthdata.com"
      },
      "geometry": {
        "type": "MultiLineString",
        "coordinates": [
          [
            [23.712694, 37.700643],
            [23.762774, 37.610772],
            [23.766545, 37.605032],
            [23.771049, 37.599706],
            [23.802459, 37.569751],
            [23.865744, 37.519338],
            [24.00192, 37.433149],
            [24.314758, 37.289925],
            [24.888259, 37.117832],
            [25.074136, 37.077196]
          ]
        ]
      }
    },
    {
      "type": "Feature",
      "properties": {
        "Type": "Ferry",
        "Road kind": "Ferry Route",
        "Source": "naturalearthdata.com"
      },
      "geometry": {
        "type": "MultiLineString",
        "coordinates": [
          [
            [25.876654, 40.837519],
            [25.860822, 40.785875],
            [25.805223, 40.533635],
            [25.788644, 40.486688],
            [25.76699, 40.44184],
            [25.754856, 40.422496],
            [25.741288, 40.404634],
            [25.726202, 40.388032],
            [25.659001, 40.327714],
            [25.644341, 40.310645],
            [25.631618, 40.289784],
            [25.623358, 40.267366],
            [25.619351, 40.243764],
            [25.619362, 40.219334],
            [25.622676, 40.194862],
            [25.642358, 40.123408],
            [25.63975, 40.125432],
            [25.634932, 40.126301],
            [25.185404, 40.092928],
            [25.109108, 40.078076],
            [25.080425, 40.06967],
            [25.052366, 40.059257],
            [25.025345, 40.046488],
            [24.999771, 40.031017],
            [24.979272, 40.015214],
            [24.960775, 39.997259],
            [24.944482, 39.977285],
            [24.93061, 39.955433],
            [24.918359, 39.92983],
            [24.908979, 39.903066],
            [24.902119, 39.875503],
            [24.895533, 39.83076],
            [24.893019, 39.753927],
            [24.895463, 39.701333],
            [24.898841, 39.675251],
            [24.903577, 39.653352],
            [24.931076, 39.573661],
            [24.938216, 39.556913],
            [24.947293, 39.541373],
            [24.959159, 39.528615],
            [24.961352, 39.526987],
            [24.963685, 39.525541],
            [24.966124, 39.524316],
            [24.968691, 39.523353]
          ]
        ]
      }
    },
    {
      "type": "Feature",
      "properties": {
        "Type": "Ferry",
        "Road kind": "Ferry Route",
        "Source": "naturalearthdata.com"
      },
      "geometry": {
        "type": "MultiLineString",
        "coordinates": [
          [
            [24.403193, 40.921147],
            [24.381942, 40.823005],
            [24.374983, 40.722803],
            [24.379299, 40.622112],
            [24.410392, 40.422846],
            [24.497882, 40.076769],
            [24.533373, 39.97711],
            [24.578944, 39.8814],
            [24.69212, 39.708041],
            [24.722337, 39.670316],
            [24.755337, 39.635158],
            [24.79193, 39.603768],
            [24.82713, 39.579419],
            [24.864137, 39.557928],
            [24.901746, 39.540054],
            [24.921288, 39.532803],
            [24.948063, 39.525722],
            [24.961778, 39.523756],
            [24.968691, 39.523353],
            [24.939873, 39.491176],
            [24.915886, 39.454705],
            [24.898181, 39.41495],
            [24.888194, 39.372925],
            [24.886695, 39.352415],
            [24.887734, 39.331916],
            [24.891502, 39.311767],
            [24.89821, 39.292324],
            [24.905211, 39.278557],
            [24.913693, 39.265601],
            [24.923376, 39.253485],
            [24.957362, 39.219598],
            [25.00326, 39.182906],
            [25.080273, 39.138408],
            [25.15493, 39.106464],
            [25.226717, 39.082576],
            [25.400706, 39.044477],
            [25.712342, 39.01342],
            [25.934265, 39.011635],
            [25.990596, 39.018449]
          ]
        ]
      }
    },
    {
      "type": "Feature",
      "properties": {
        "Type": "Ferry",
        "Road kind": "Ferry Route",
        "Source": "naturalearthdata.com"
      },
      "geometry": {
        "type": "MultiLineString",
        "coordinates": [
          [
            [23.062884, 39.840933],
            [23.112441, 39.805221],
            [23.180864, 39.76917],
            [23.259182, 39.736398],
            [23.456718, 39.680863],
            [24.800278, 39.511424],
            [24.927285, 39.52277],
            [24.968691, 39.523353]
          ]
        ]
      }
    },
    {
      "type": "Feature",
      "properties": {
        "Type": "Ferry",
        "Road kind": "Ferry Route",
        "Source": "naturalearthdata.com"
      },
      "geometry": {
        "type": "MultiLineString",
        "coordinates": [
          [
            [23.749582, 37.651875],
            [23.785953, 37.636492],
            [23.82413, 37.624977],
            [23.861619, 37.617469],
            [23.899712, 37.613981],
            [23.939234, 37.613415],
            [23.978551, 37.615836],
            [24.017554, 37.621272],
            [24.0752, 37.634835],
            [24.112931, 37.646788],
            [24.197639, 37.685295],
            [24.25563, 37.719502],
            [24.318048, 37.763685],
            [25.192585, 38.576965],
            [25.259641, 38.625727],
            [26.007166, 39.027724],
            [26.031538, 39.036684],
            [26.044069, 39.040207],
            [26.056826, 39.042506],
            [26.069893, 39.043182]
          ]
        ]
      }
    },
    {
      "type": "Feature",
      "properties": {
        "Type": "Ferry",
        "Road kind": "Ferry Route",
        "Source": "naturalearthdata.com"
      },
      "geometry": {
        "type": "MultiLineString",
        "coordinates": [
          [
            [23.849176, 36.593997],
            [24.103446, 36.406731],
            [24.377654, 36.239894],
            [24.874095, 36.016722],
            [24.907999, 35.996328],
            [24.95686, 35.960044],
            [25.018205, 35.903792],
            [25.061408, 35.850241],
            [25.082916, 35.815625],
            [25.104249, 35.773799],
            [25.118086, 35.736704],
            [25.133626, 35.679617],
            [25.139565, 35.640609],
            [25.142966, 35.561764],
            [25.133953, 35.343907]
          ]
        ]
      }
    },
    {
      "type": "Feature",
      "properties": {
        "Type": "Ferry",
        "Road kind": "Ferry Route",
        "Source": "naturalearthdata.com"
      },
      "geometry": {
        "type": "MultiLineString",
        "coordinates": [
          [
            [23.637596, 37.861728],
            [23.636616, 37.849706],
            [23.648219, 37.737335],
            [23.698028, 37.584008],
            [23.785002, 37.134177],
            [23.788088, 37.078362],
            [23.780957, 36.829378],
            [23.78558, 36.774263],
            [23.796398, 36.721476],
            [23.8408, 36.596272],
            [23.846079, 36.570278],
            [23.85083, 36.515292],
            [23.849964, 36.328516],
            [23.856976, 36.246042],
            [23.863072, 36.207915],
            [23.890652, 36.118522],
            [24.000065, 35.864883],
            [24.027459, 35.785618],
            [24.042813, 35.721799],
            [24.049778, 35.656173],
            [24.044435, 35.591135],
            [24.022886, 35.529085]
          ]
        ]
      }
    },
    {
      "type": "Feature",
      "properties": {
        "Type": "Ferry",
        "Road kind": "Ferry Route",
        "Source": "naturalearthdata.com"
      },
      "geometry": {
        "type": "MultiLineString",
        "coordinates": [
          [
            [22.568901, 36.809789],
            [22.649901, 36.578632],
            [22.676858, 36.472544],
            [22.681233, 36.443085],
            [22.68188, 36.440484],
            [22.683056, 36.43801],
            [22.729995, 36.363919],
            [22.730955, 36.360997],
            [22.734224, 36.322122],
            [22.747355, 36.248177],
            [22.752827, 36.230292],
            [22.768397, 36.195303],
            [22.773673, 36.186821],
            [22.780023, 36.179325],
            [22.787105, 36.172359],
            [22.791004, 36.169209],
            [22.795277, 36.166794],
            [22.800183, 36.164933],
            [22.809844, 36.16253],
            [22.815038, 36.161643],
            [22.818731, 36.161538],
            [22.822788, 36.162075],
            [22.872857, 36.17282],
            [22.881595, 36.173946],
            [22.910599, 36.174349],
            [22.920706, 36.17352],
            [22.930684, 36.171368],
            [22.938168, 36.1675],
            [22.943987, 36.161562],
            [22.948561, 36.154369],
            [22.976938, 36.094558],
            [22.979499, 36.090586],
            [22.986219, 36.08232],
            [22.993855, 36.074853],
            [23.008258, 36.063314],
            [23.040175, 36.044309],
            [23.074476, 36.028413],
            [23.1552, 36.004105],
            [23.682549, 35.942474],
            [23.785274, 35.915937]
          ]
        ]
      }
    },
    {
      "type": "Feature",
      "properties": {
        "Type": "Ferry",
        "Road kind": "Ferry Route",
        "Source": "naturalearthdata.com"
      },
      "geometry": {
        "type": "MultiLineString",
        "coordinates": [
          [
            [14.205058, 42.390268],
            [14.22089, 42.425642],
            [14.239895, 42.459388],
            [14.262453, 42.490796],
            [14.288943, 42.51917],
            [14.321141, 42.546541],
            [14.353674, 42.568439],
            [14.387832, 42.585339],
            [14.425263, 42.598237],
            [14.464195, 42.606929],
            [14.503609, 42.611415],
            [14.543312, 42.61215],
            [14.583131, 42.609583],
            [14.661519, 42.596318],
            [15.892064, 42.213776],
            [16.374204, 42.111527],
            [18.075178, 41.955429],
            [18.281596, 41.96685],
            [18.410924, 41.989111],
            [18.522262, 42.019066],
            [18.657543, 42.078468],
            [18.947767, 42.242144]
          ]
        ]
      }
    },
    {
      "type": "Feature",
      "properties": {
        "Type": "Ferry",
        "Road kind": "Ferry Route",
        "Source": "naturalearthdata.com"
      },
      "geometry": {
        "type": "MultiLineString",
        "coordinates": [
          [
            [15.539238, 38.227744],
            [15.648834, 38.225259],
            [15.684976, 38.220755]
          ]
        ]
      }
    },
    {
      "type": "Feature",
      "properties": {
        "Type": "Ferry",
        "Road kind": "Ferry Route",
        "Source": "naturalearthdata.com"
      },
      "geometry": {
        "type": "MultiLineString",
        "coordinates": [
          [
            [20.92251, 37.786266],
            [20.929291, 37.825432],
            [20.934451, 37.844485],
            [20.941069, 37.863385],
            [20.945062, 37.872374],
            [20.954754, 37.889391],
            [20.965094, 37.904686],
            [20.971106, 37.911546],
            [20.977721, 37.917835],
            [20.998908, 37.932488],
            [21.006401, 37.936467],
            [21.01441, 37.939652],
            [21.031103, 37.944056],
            [21.048221, 37.946285],
            [21.064922, 37.94625],
            [21.081315, 37.944377],
            [21.113728, 37.937155]
          ]
        ]
      }
    },
    {
      "type": "Feature",
      "properties": {
        "Type": "Ferry",
        "Road kind": "Ferry Route",
        "Source": "naturalearthdata.com"
      },
      "geometry": {
        "type": "MultiLineString",
        "coordinates": [
          [
            [11.956457, 36.84325],
            [11.931568, 36.88605],
            [11.911653, 36.93161],
            [11.895967, 36.978902],
            [11.875392, 37.070131],
            [11.86577, 37.157756],
            [11.864574, 37.223453],
            [11.867421, 37.266714],
            [11.870577, 37.28814],
            [11.875567, 37.309625],
            [11.890711, 37.351107],
            [11.911994, 37.393872],
            [11.93933, 37.43746],
            [11.971259, 37.478026],
            [12.007351, 37.515208],
            [12.256942, 37.728661],
            [12.409966, 37.886328],
            [12.486592, 37.987288],
            [12.502517, 38.011695]
          ]
        ]
      }
    },
    {
      "type": "Feature",
      "properties": {
        "Type": "Ferry",
        "Road kind": "Ferry Route",
        "Source": "naturalearthdata.com"
      },
      "geometry": {
        "type": "MultiLineString",
        "coordinates": [
          [
            [12.881013, 35.890025],
            [12.957274, 35.905799],
            [13.031377, 35.929629],
            [13.102467, 35.962576],
            [13.16935, 36.004507],
            [13.230619, 36.054687],
            [13.285778, 36.111516],
            [13.332513, 36.171449],
            [13.380073, 36.246952],
            [13.415984, 36.317181],
            [13.44299, 36.380696],
            [13.491306, 36.532262],
            [13.523209, 36.692466],
            [13.538531, 36.851499],
            [13.53919, 37.052742],
            [13.525925, 37.160078],
            [13.524589, 37.197319],
            [13.530451, 37.233154],
            [13.547634, 37.264176],
            [13.552277, 37.268977],
            [13.55735, 37.273341]
          ]
        ]
      }
    },
    {
      "type": "Feature",
      "properties": {
        "Type": "Ferry",
        "Road kind": "Ferry Route",
        "Source": "naturalearthdata.com"
      },
      "geometry": {
        "type": "MultiLineString",
        "coordinates": [
          [
            [18.27849, 41.957529],
            [18.919402, 42.012445],
            [19.148661, 42.011745],
            [19.231371, 42.004348],
            [19.301349, 41.991071]
          ]
        ]
      }
    },
    {
      "type": "Feature",
      "properties": {
        "Type": "Ferry",
        "Road kind": "Ferry Route",
        "Source": "naturalearthdata.com"
      },
      "geometry": {
        "type": "MultiLineString",
        "coordinates": [
          [
            [19.339678, 39.824016],
            [19.562359, 39.475349],
            [20.09761, 38.412939],
            [20.174903, 38.290664],
            [20.273705, 38.166982],
            [20.330844, 38.111028],
            [20.393536, 38.061408],
            [20.426801, 38.040303],
            [20.461744, 38.022382],
            [20.535027, 37.993932],
            [20.731831, 37.949131],
            [20.799581, 37.921644],
            [20.857916, 37.885331],
            [20.883099, 37.866302],
            [20.930064, 37.822352]
          ]
        ]
      }
    },
    {
      "type": "Feature",
      "properties": {
        "Type": "Ferry",
        "Road kind": "Ferry Route",
        "Source": "naturalearthdata.com"
      },
      "geometry": {
        "type": "MultiLineString",
        "coordinates": [
          [
            [18.162902, 41.717609],
            [18.527982, 41.439743],
            [19.212208, 40.609646],
            [19.245482, 40.577906],
            [19.281002, 40.548627],
            [19.358208, 40.497853],
            [19.441227, 40.457205]
          ]
        ]
      }
    },
    {
      "type": "Feature",
      "properties": {
        "Type": "Ferry",
        "Road kind": "Ferry Route",
        "Source": "naturalearthdata.com"
      },
      "geometry": {
        "type": "MultiLineString",
        "coordinates": [
          [
            [16.639665, 43.025801],
            [16.509255, 43.052145],
            [16.466915, 43.065358],
            [16.42686, 43.083121],
            [16.407974, 43.094211],
            [16.390161, 43.10698],
            [16.372209, 43.122684],
            [16.355633, 43.140447],
            [16.341201, 43.159936],
            [16.329721, 43.180814],
            [16.325459, 43.19174],
            [16.322586, 43.203092],
            [16.321426, 43.214701],
            [16.322324, 43.226391],
            [16.324972, 43.236308],
            [16.329161, 43.245572],
            [16.334606, 43.254194],
            [16.341046, 43.262168],
            [16.395525, 43.313048],
            [16.401073, 43.320322],
            [16.405801, 43.32811],
            [16.409531, 43.336411],
            [16.412098, 43.34519],
            [16.413953, 43.358531],
            [16.413708, 43.411441],
            [16.414884, 43.423948],
            [16.417637, 43.436122],
            [16.422517, 43.447579],
            [16.427878, 43.455974],
            [16.453259, 43.487387],
            [16.459017, 43.496166],
            [16.463593, 43.505546],
            [16.466434, 43.515627]
          ]
        ]
      }
    },
    {
      "type": "Feature",
      "properties": {
        "Type": "Ferry",
        "Road kind": "Ferry Route",
        "Source": "naturalearthdata.com"
      },
      "geometry": {
        "type": "MultiLineString",
        "coordinates": [
          [
            [15.166491, 37.497183],
            [15.245251, 37.499014],
            [15.32365, 37.491355],
            [15.361813, 37.483474],
            [15.39927, 37.472495],
            [15.435496, 37.458058],
            [15.469919, 37.439816],
            [15.501977, 37.417544],
            [15.530753, 37.391515],
            [15.555688, 37.361823],
            [15.576184, 37.328566],
            [15.592399, 37.290794],
            [15.616747, 37.214002],
            [15.633787, 37.137176],
            [15.644421, 37.061836],
            [15.647723, 36.986182],
            [15.639411, 36.851172],
            [15.636841, 36.840788],
            [15.635657, 36.837965],
            [15.634184, 36.835282]
          ]
        ]
      }
    },
    {
      "type": "Feature",
      "properties": {
        "Type": "Ferry",
        "Road kind": "Ferry Route",
        "Source": "naturalearthdata.com"
      },
      "geometry": {
        "type": "MultiLineString",
        "coordinates": [
          [
            [14.250273, 40.767826],
            [14.238653, 40.759099],
            [14.229296, 40.747771],
            [14.221835, 40.734931],
            [14.215888, 40.721678],
            [14.209704, 40.704515],
            [14.200721, 40.6691],
            [14.192673, 40.612271],
            [14.189156, 40.44688],
            [14.193102, 40.39943],
            [14.201902, 40.35278],
            [14.216984, 40.307332],
            [14.312458, 40.139077],
            [14.454923, 39.947301],
            [15.214617, 39.137235],
            [15.332698, 38.982911],
            [15.350023, 38.952233],
            [15.366127, 38.917453],
            [15.372415, 38.899352],
            [15.376747, 38.880662],
            [15.379485, 38.860536],
            [15.380597, 38.840265],
            [15.380159, 38.829975],
            [15.375125, 38.799751],
            [15.369615, 38.78102],
            [15.361422, 38.763257],
            [15.35131, 38.746433],
            [15.340072, 38.730508],
            [15.327795, 38.715872],
            [15.299969, 38.690129],
            [15.05396, 38.510539],
            [14.977903, 38.444306],
            [14.961581, 38.42502],
            [14.987528, 38.424285],
            [15.039408, 38.426934],
            [15.065347, 38.426193],
            [15.077944, 38.424408],
            [15.090218, 38.421462],
            [15.102147, 38.417338],
            [15.215996, 38.355392],
            [15.256565, 38.324976],
            [15.270437, 38.311594],
            [15.282043, 38.296474],
            [15.289694, 38.279475],
            [15.291111, 38.272137],
            [15.29121, 38.264612],
            [15.289831, 38.25725],
            [15.286818, 38.250395],
            [15.278604, 38.241342],
            [15.257426, 38.228712],
            [15.247897, 38.221129]
          ]
        ]
      }
    },
    {
      "type": "Feature",
      "properties": {
        "Type": "Ferry",
        "Road kind": "Ferry Route",
        "Source": "naturalearthdata.com"
      },
      "geometry": {
        "type": "MultiLineString",
        "coordinates": [
          [
            [11.04196, 38.552902],
            [12.633184, 38.53378],
            [12.950843, 38.475713],
            [13.251422, 38.389979],
            [13.32369, 38.360928],
            [13.393143, 38.325729],
            [13.407934, 38.316541],
            [13.43741, 38.293102],
            [13.444775, 38.286114],
            [13.451317, 38.278437],
            [13.520739, 38.170448]
          ]
        ]
      }
    },
    {
      "type": "Feature",
      "properties": {
        "Type": "Ferry",
        "Road kind": "Ferry Route",
        "Source": "naturalearthdata.com"
      },
      "geometry": {
        "type": "MultiLineString",
        "coordinates": [
          [
            [8.23561, 38.67495],
            [8.697527, 38.573652],
            [10.58853, 38.582046],
            [11.870997, 38.435025],
            [12.054897, 38.395911],
            [12.163677, 38.361856],
            [12.516838, 38.184156],
            [12.58285, 38.136526],
            [12.612615, 38.109056],
            [12.639087, 38.078016],
            [12.650649, 38.060032]
          ]
        ]
      }
    },
    {
      "type": "Feature",
      "properties": {
        "Type": "Ferry",
        "Road kind": "Ferry Route",
        "Source": "naturalearthdata.com"
      },
      "geometry": {
        "type": "MultiLineString",
        "coordinates": [
          [
            [9.47149, 43.025801],
            [9.378766, 43.072843],
            [9.330874, 43.092875],
            [9.281353, 43.108753],
            [9.230724, 43.119324],
            [9.179419, 43.126061],
            [9.102866, 43.130349],
            [9.026357, 43.125636],
            [8.948282, 43.113543],
            [8.867439, 43.094485],
            [8.713566, 43.040292],
            [8.580094, 42.975978],
            [7.36685, 42.195254],
            [7.099476, 42.050893],
            [6.946767, 41.986871],
            [6.796774, 41.942274],
            [6.64688, 41.916548],
            [6.333561, 41.896283],
            [5.936152, 41.914279]
          ]
        ]
      }
    },
    {
      "type": "Feature",
      "properties": {
        "Type": "Ferry",
        "Road kind": "Ferry Route",
        "Source": "naturalearthdata.com"
      },
      "geometry": {
        "type": "MultiLineString",
        "coordinates": [
          [
            [-5.501317, 49.025655],
            [-5.679361, 48.9258],
            [-5.943998, 48.7359],
            [-6.057869, 48.632192],
            [-6.163115, 48.515493],
            [-6.221826, 48.437191],
            [-6.263557, 48.370817],
            [-6.311173, 48.276572],
            [-6.337798, 48.20783],
            [-6.371756, 48.086692],
            [-6.383791, 48.014532],
            [-6.398424, 47.854531],
            [-6.390601, 47.623158],
            [-6.368144, 47.472829],
            [-6.309761, 47.241491],
            [-6.190991, 46.933239],
            [-5.92699, 46.450361],
            [-5.605354, 45.97929],
            [-5.227664, 45.50357],
            [-3.240962, 43.44559]
          ]
        ]
      }
    },
    {
      "type": "Feature",
      "properties": {
        "Type": "Ferry",
        "Road kind": "Ferry Route",
        "Source": "naturalearthdata.com"
      },
      "geometry": {
        "type": "MultiLineString",
        "coordinates": [
          [
            [-5.621452, 35.811086],
            [-5.620453, 35.821371],
            [-5.619947, 35.823669],
            [-5.619028, 35.825933],
            [-5.61487, 35.834234],
            [-5.612357, 35.838177],
            [-5.609475, 35.841852],
            [-5.606353, 35.844979],
            [-5.591841, 35.857008],
            [-5.58419, 35.862485],
            [-5.558756, 35.876241],
            [-5.523239, 35.892008],
            [-5.382913, 35.933379],
            [-2.868965, 36.227317],
            [-2.22804, 36.357438],
            [-1.629114, 36.546746],
            [-1.205509, 36.719645],
            [-0.630685, 37.010776],
            [-0.568057, 37.058313],
            [-0.451638, 37.166681],
            [-0.248383, 37.405795],
            [1.04746, 39.410615],
            [3.200485, 41.725263],
            [3.25254, 41.790073],
            [3.307632, 41.871946],
            [3.40328, 42.057666],
            [3.464021, 42.216261],
            [3.530176, 42.461862],
            [3.579725, 42.770779],
            [3.601321, 43.096369],
            [3.599652, 43.249212]
          ]
        ]
      }
    },
    {
      "type": "Feature",
      "properties": {
        "Type": "Ferry",
        "Road kind": "Ferry Route",
        "Source": "naturalearthdata.com"
      },
      "geometry": {
        "type": "MultiLineString",
        "coordinates": [
          [
            [-5.438315, 35.968135],
            [-5.35906, 35.994643],
            [-5.351627, 35.996439],
            [-5.342926, 35.997268],
            [-5.33428, 35.996673],
            [-5.327014, 35.994199],
            [-5.318271, 35.988832],
            [-5.314424, 35.9857],
            [-5.310914, 35.981762],
            [-5.308239, 35.977463],
            [-5.306164, 35.972843],
            [-5.301265, 35.958388],
            [-5.300177, 35.952945],
            [-5.299511, 35.947438],
            [-5.29938, 35.917419]
          ]
        ]
      }
    },
    {
      "type": "Feature",
      "properties": {
        "Type": "Ferry",
        "Road kind": "Ferry Route",
        "Source": "naturalearthdata.com"
      },
      "geometry": {
        "type": "MultiLineString",
        "coordinates": [
          [
            [9.525251, 40.917163],
            [9.723857, 40.884216],
            [9.761174, 40.874118],
            [9.779535, 40.867503],
            [9.814504, 40.850877],
            [9.839996, 40.836054],
            [9.870269, 40.810918],
            [9.882986, 40.797524],
            [9.899988, 40.775036],
            [9.910027, 40.758522],
            [9.918334, 40.741097],
            [9.924246, 40.723072],
            [9.931885, 40.685487],
            [9.933947, 40.666516],
            [9.932436, 40.589695],
            [9.918127, 40.450975],
            [9.864619, 40.185424],
            [9.850525, 40.138382],
            [9.830948, 40.088209],
            [9.782, 39.994354],
            [9.767305, 39.972583],
            [9.69259, 39.878431],
            [9.671814, 39.844294],
            [9.681527, 39.846079],
            [9.695308, 39.83419],
            [9.715282, 39.808651],
            [9.795058, 39.674539],
            [9.801839, 39.659121],
            [9.812077, 39.626792],
            [9.826293, 39.55556],
            [9.830508, 39.500019],
            [9.829621, 39.444257],
            [9.815163, 39.330819],
            [9.787856, 39.217166],
            [9.758464, 39.124233],
            [9.729248, 39.051967],
            [9.702912, 38.999653],
            [9.682174, 38.966361],
            [9.664613, 38.942578],
            [9.641293, 38.917237],
            [9.619692, 38.900577],
            [9.615988, 38.898267],
            [9.600497, 38.890497],
            [9.584604, 38.885078],
            [9.568083, 38.88226],
            [9.550696, 38.882307],
            [9.40556, 38.894954]
          ]
        ]
      }
    },
    {
      "type": "Feature",
      "properties": {
        "Type": "Ferry",
        "Road kind": "Ferry Route",
        "Source": "naturalearthdata.com"
      },
      "geometry": {
        "type": "MultiLineString",
        "coordinates": [
          [
            [11.60004, 41.876904],
            [11.120817, 41.409771],
            [10.655919, 41.036755],
            [10.535924, 40.920127],
            [9.672359, 39.84938]
          ]
        ]
      }
    },
    {
      "type": "Feature",
      "properties": {
        "Type": "Ferry",
        "Road kind": "Ferry Route",
        "Source": "naturalearthdata.com"
      },
      "geometry": {
        "type": "MultiLineString",
        "coordinates": [
          [
            [20.617973, 38.089531],
            [20.782536, 37.929805]
          ]
        ]
      }
    },
    {
      "type": "Feature",
      "properties": {
        "Type": "Ferry",
        "Road kind": "Ferry Route",
        "Source": "naturalearthdata.com"
      },
      "geometry": {
        "type": "MultiLineString",
        "coordinates": [
          [
            [25.516944, 37.334254],
            [25.477539, 37.323777],
            [25.468526, 37.320108],
            [25.46012, 37.315546],
            [25.444218, 37.304655],
            [25.44115, 37.301878],
            [25.355619, 37.179725]
          ]
        ]
      }
    },
    {
      "type": "Feature",
      "properties": {
        "Type": "Ferry",
        "Road kind": "Ferry Route",
        "Source": "naturalearthdata.com"
      },
      "geometry": {
        "type": "MultiLineString",
        "coordinates": [
          [
            [1.568996, 41.177546],
            [1.579444, 41.140638],
            [1.586841, 41.122956],
            [1.596285, 41.106209],
            [1.619263, 41.074515],
            [1.632211, 41.059815],
            [1.662005, 41.033208],
            [1.694614, 41.008877],
            [1.728384, 40.987556],
            [1.815507, 40.944691],
            [1.963578, 40.894716],
            [3.531465, 40.584515],
            [4.113506, 40.386509],
            [7.522473, 38.638642],
            [8.101789, 38.403752],
            [8.607009, 38.242153],
            [9.014063, 38.169013],
            [11.135749, 38.134437]
          ]
        ]
      }
    }
  ]
}
