{
  "type": "Feature",
  "geometry": {
    "type": "Point",
    "coordinates": [
      -16.9,
      32.633333
    ]
  },
  "properties": {
    "country": "Portugal",
    "url": "https://gisis.imo.org/Public/COMSAR/RCC.aspx?CID=PRT&Action=View&ID=200",
    "kind": "Maritime Rescue Sub-Centre (MRSC)",
    "name": "Funchal",
    "mmsi": "002550100",
    "callSign": null,
    "VHF_voiceCallSign": "POSTRADFUNCHAL",
    "LRIT_ID": "2531",
    "telephone": [
      "+351291213110",
      "+351919678140"
    ],
    "fax": [
      "+351291228232"
    ],
    "email": [
      "mrsc.funchal@marinha.pt"
    ],
    "telex": null,
    "otherLandlineCommunication": "Inmarsat C: 426300032 (shared/relayed by MRCC Lisboa)",
    "associatedCRS": null,
    "associatedLES": "Aussaguel",
    "associatedCOSPAS_SARSAT": "SPOC:  MRCC Lisboa",
    "associatedARCC": null,
    "telemedicalAdvice": null,
    "facilitiesAvailable": null,
    "remarks": null,
    "additionalInformation": null,
    "areaLimitsPlaintext": null,
    "gmlFilename": null,
    "updated": "2018-06-28 00:00:00",
    "fetched": "2024-06-23 15:08:09+00:00"
  }
}