{
  "type": "Feature",
  "style": {
    "color": "grey",
    "fillColor": "#00b4d8",
    "fillOpacity": 0.05,
    "weight": 0.4
  },
  "geometry": {
    "type": "GeometryCollection",
    "geometries": [
      {
        "type": "Point",
        "coordinates": [
          -0.316667,
          39.433333
        ]
      },
      {
        "type": "MultiPolygon",
        "coordinates": [
          [
            [
              [
                -1.616667,
                37.366667
              ],
              [
                -2.1,
                35.833333
              ],
              [
                3.75,
                38.333333
              ],
              [
                4.666667,
                39.0
              ],
              [
                4.666667,
                42.0
              ],
              [
                3.2,
                42.45
              ],
              [
                -1.616667,
                37.366667
              ]
            ]
          ]
        ]
      }
    ]
  },
  "properties": {
    "country": "Spain",
    "url": "https://gisis.imo.org/Public/COMSAR/RCC.aspx?CID=ESP&Action=View&ID=229",
    "kind": "Maritime Rescue Co-ordination Centre (MRCC)",
    "name": "Valencia",
    "mmsi": "002241004",
    "callSign": "See remarks",
    "VHF_voiceCallSign": "MRCC Valencia (VHF 16 - 10)",
    "LRIT_ID": "2713",
    "telephone": [
      "+34963679302",
      "+34963679204"
    ],
    "fax": [
      "+34963679403"
    ],
    "email": [
      "valencia@sasemar.es"
    ],
    "telex": null,
    "otherLandlineCommunication": "Edificio de Capitan\u00eda y torre de control, Ampliaci\u00f3n Sur, s/n Puerto de Valencia, 46024- Valencia",
    "associatedCRS": "See Remarks",
    "associatedLES": null,
    "associatedCOSPAS_SARSAT": "SPMCC Maspalomas",
    "associatedARCC": "See Remarks",
    "telemedicalAdvice": "See Remarks",
    "facilitiesAvailable": "See Remarks",
    "remarks": "A network of Coast Radio stations, connected to all Spanish MRCCs, is responsible for maintaining a continuous listening watch on international distress frequencies.",
    "additionalInformation": null,
    "areaLimitsPlaintext": [
      [
        "37\u00b022'00.00\"N",
        "001\u00b037'00.00\"W"
      ],
      [
        "35\u00b050'00.00\"N",
        "002\u00b006'00.00\"W"
      ],
      [
        "38\u00b020'00.00\"N",
        "003\u00b045'00.00\"E"
      ],
      [
        "39\u00b000'00.00\"N",
        "004\u00b040'00.00\"E"
      ],
      [
        "42\u00b000'00.00\"N",
        "004\u00b040'00.00\"E"
      ],
      [
        "42\u00b027'00.00\"N",
        "003\u00b012'00.00\"E"
      ]
    ],
    "gmlFilename": null,
    "updated": "2023-01-18 00:00:00",
    "fetched": "2024-06-23 15:01:01+00:00"
  }
}