{
  "type": "Feature",
  "style": {
    "color": "grey",
    "fillColor": "#ffb703",
    "fillOpacity": 0.05,
    "weight": 0.4
  },
  "geometry": {
    "type": "MultiPolygon",
    "coordinates": [
      [
        [
          [
            35.9178,
            35.9289
          ],
          [
            35.9238,
            35.9569
          ],
          [
            35.9558,
            35.9829
          ],
          [
            35.9595,
            35.9922
          ],
          [
            35.9815,
            36.0103
          ],
          [
            35.937,
            36.0953
          ],
          [
            35.8952,
            36.1597
          ],
          [
            35.8793,
            36.1748
          ],
          [
            35.8403,
            36.2299
          ],
          [
            35.8181,
            36.2549
          ],
          [
            35.7906,
            36.2806
          ],
          [
            35.7837,
            36.2914
          ],
          [
            35.7795,
            36.3178
          ],
          [
            35.7892,
            36.3301
          ],
          [
            35.8068,
            36.3393
          ],
          [
            35.8174,
            36.3587
          ],
          [
            35.8509,
            36.3678
          ],
          [
            35.8606,
            36.3956
          ],
          [
            35.8815,
            36.4164
          ],
          [
            35.8927,
            36.414
          ],
          [
            35.9016,
            36.4386
          ],
          [
            35.9391,
            36.4591
          ],
          [
            35.9825,
            36.4743
          ],
          [
            35.9985,
            36.4952
          ],
          [
            36.028,
            36.5176
          ],
          [
            36.037,
            36.5337
          ],
          [
            36.095,
            36.5574
          ],
          [
            36.1616,
            36.5956
          ],
          [
            36.1892,
            36.5933
          ],
          [
            36.1963,
            36.6079
          ],
          [
            36.1968,
            36.6274
          ],
          [
            36.2116,
            36.6418
          ],
          [
            36.2147,
            36.6622
          ],
          [
            36.1933,
            36.7049
          ],
          [
            36.202,
            36.7272
          ],
          [
            36.1901,
            36.7451
          ],
          [
            36.1969,
            36.7616
          ],
          [
            36.2062,
            36.767
          ],
          [
            36.2035,
            36.7872
          ],
          [
            36.1353,
            36.8675
          ],
          [
            36.1121,
            36.8848
          ],
          [
            36.0777,
            36.9035
          ],
          [
            36.0368,
            36.9221
          ],
          [
            36.0055,
            36.9305
          ],
          [
            35.9653,
            36.9049
          ],
          [
            35.9572,
            36.8939
          ],
          [
            35.9231,
            36.8768
          ],
          [
            35.9185,
            36.8682
          ],
          [
            35.8692,
            36.8194
          ],
          [
            35.8537,
            36.8133
          ],
          [
            35.8421,
            36.796
          ],
          [
            35.7881,
            36.7658
          ],
          [
            35.761,
            36.7703
          ],
          [
            35.7058,
            36.7592
          ],
          [
            35.6994,
            36.767
          ],
          [
            35.6666,
            36.7668
          ],
          [
            35.6287,
            36.7469
          ],
          [
            35.6094,
            36.7144
          ],
          [
            35.6091,
            36.7285
          ],
          [
            35.5964,
            36.7184
          ],
          [
            35.5992,
            36.7002
          ],
          [
            35.6071,
            36.7128
          ],
          [
            35.6157,
            36.7101
          ],
          [
            35.6299,
            36.7219
          ],
          [
            35.6238,
            36.7337
          ],
          [
            35.6556,
            36.7326
          ],
          [
            35.6452,
            36.7261
          ],
          [
            35.6452,
            36.7076
          ],
          [
            35.671,
            36.7139
          ],
          [
            35.6791,
            36.7101
          ],
          [
            35.7043,
            36.7231
          ],
          [
            35.7213,
            36.7127
          ],
          [
            35.6879,
            36.6917
          ],
          [
            35.6494,
            36.6727
          ],
          [
            35.6377,
            36.6562
          ],
          [
            35.6377,
            36.632
          ],
          [
            35.6264,
            36.6055
          ],
          [
            35.5949,
            36.5919
          ],
          [
            35.5771,
            36.5795
          ],
          [
            35.571,
            36.5684
          ],
          [
            35.5588,
            36.5648
          ],
          [
            35.5311,
            36.5771
          ],
          [
            35.5025,
            36.5851
          ],
          [
            35.4542,
            36.5914
          ],
          [
            35.4187,
            36.5902
          ],
          [
            35.4076,
            36.5854
          ],
          [
            35.408,
            36.5728
          ],
          [
            35.3914,
            36.5672
          ],
          [
            35.3718,
            36.5514
          ],
          [
            35.3597,
            36.5505
          ],
          [
            35.3388,
            36.5382
          ],
          [
            35.3339,
            36.5511
          ],
          [
            35.2872,
            36.5758
          ],
          [
            35.2348,
            36.601
          ],
          [
            35.1416,
            36.6436
          ],
          [
            35.0202,
            36.7028
          ],
          [
            34.9758,
            36.7186
          ],
          [
            34.9072,
            36.7266
          ],
          [
            34.903,
            36.7207
          ],
          [
            35.9178,
            35.9289
          ]
        ]
      ]
    ]
  },
  "properties": {
    "country": "T\u00fcrkiye",
    "url": "https://gisis.imo.org/Public/COMSAR/RCC.aspx?CID=TUR&Action=View&ID=250",
    "kind": "Maritime Rescue Sub-Centre (MRSC)",
    "name": "Iskenderun (Turkish Coast Guard Iskenderun Group Command)",
    "mmsi": null,
    "callSign": "TBN-15",
    "VHF_voiceCallSign": "Turkish Coast Guard",
    "LRIT_ID": "2780",
    "telephone": [
      "+903266130765"
    ],
    "fax": [
      "+903266131620"
    ],
    "email": null,
    "telex": null,
    "otherLandlineCommunication": null,
    "associatedCRS": "See remarks",
    "associatedLES": null,
    "associatedCOSPAS_SARSAT": "TRMCC / ANKARA",
    "associatedARCC": "See remarks",
    "telemedicalAdvice": "See remarks",
    "facilitiesAvailable": "See remarks",
    "remarks": "TURK RADIO TAH / 002711000 A1: Ch 70 A2: 2187.5 kHz (DSC Capability) A3/A4: 4, 6, 8, 12, 16 MHz Tel: \t+90 212 598 95 20 Fax: \t+90 212 541 03 38 Telex:21190 ISTZ TR",
    "additionalInformation": null,
    "areaLimitsPlaintext": null,
    "gmlFilename": "TUR-RCCAreas-250.gml",
    "updated": "2020-11-05 00:00:00",
    "fetched": "2024-06-23 15:09:25+00:00"
  }
}