{
  "type": "Feature",
  "style": {
    "color": "grey",
    "fillColor": "#ffb703",
    "fillOpacity": 0.05,
    "weight": 0.4
  },
  "geometry": {
    "type": "MultiPolygon",
    "coordinates": [
      [
        [
          [
            26.16,
            39.6558
          ],
          [
            24.872,
            39.6222
          ],
          [
            24.75,
            38.8333
          ],
          [
            25.6333,
            37.3
          ],
          [
            26.8839,
            36.349
          ],
          [
            26.3602,
            35.0048
          ],
          [
            26.3008,
            34.033
          ],
          [
            27.1667,
            34.0194
          ],
          [
            29.2605,
            36.2947
          ],
          [
            26.16,
            39.6558
          ]
        ]
      ]
    ]
  },
  "properties": {
    "country": "T\u00fcrkiye",
    "url": "https://gisis.imo.org/Public/COMSAR/RCC.aspx?CID=TUR&Action=View&ID=243",
    "kind": "Maritime Rescue Co-ordination Centre (MRCC)",
    "name": "Izmir (Turkish Coast Guard Aegean Sea Regional Command)",
    "mmsi": null,
    "callSign": "TBO-16",
    "VHF_voiceCallSign": "Turkish Coast Guard",
    "LRIT_ID": "2773",
    "telephone": [
      "+902323656825"
    ],
    "fax": [
      "+902323825226"
    ],
    "email": null,
    "telex": null,
    "otherLandlineCommunication": null,
    "associatedCRS": "See remarks",
    "associatedLES": null,
    "associatedCOSPAS_SARSAT": "TMCC / ANKARA",
    "associatedARCC": "See remarks",
    "telemedicalAdvice": "See remarks",
    "facilitiesAvailable": "See remarks",
    "remarks": "\u0130STANBUL TURK RADIOTAH / 002711000A1:\tCh 70A2:\t2187.5 kHz (DSC Capability)A3:\t4, 6, 8, 12, 16 MHzTel.:\t\t+90 212 598 95 20Telex:\t  21190 ISTZ TRFax:\t\t+90 212 541 03 38",
    "additionalInformation": null,
    "areaLimitsPlaintext": null,
    "gmlFilename": "TUR-RCCAreas-243.gml",
    "updated": "2020-11-05 00:00:00",
    "fetched": "2024-06-23 15:08:40+00:00"
  }
}